<?xml version="1.0" encoding="UTF-8" standalone="no"?>
<!-- Created with Inkscape (http://www.inkscape.org/) -->

<svg
   xmlns:ns0="http://www.iki.fi/pav/software/textext/"
   xmlns:dc="http://purl.org/dc/elements/1.1/"
   xmlns:cc="http://creativecommons.org/ns#"
   xmlns:rdf="http://www.w3.org/1999/02/22-rdf-syntax-ns#"
   xmlns:svg="http://www.w3.org/2000/svg"
   xmlns="http://www.w3.org/2000/svg"
   xmlns:sodipodi="http://sodipodi.sourceforge.net/DTD/sodipodi-0.dtd"
   xmlns:inkscape="http://www.inkscape.org/namespaces/inkscape"
   width="91.873276mm"
   height="48.637482mm"
   viewBox="0 0 325.53524 172.33753"
   id="svg16990"
   version="1.1"
   inkscape:version="0.91 r13725"
   sodipodi:docname="circuit.svg">
  <sodipodi:namedview
     id="base"
     pagecolor="#ffffff"
     bordercolor="#666666"
     borderopacity="1.0"
     inkscape:pageopacity="0.0"
     inkscape:pageshadow="2"
     inkscape:zoom="2.8"
     inkscape:cx="128.28479"
     inkscape:cy="82.596192"
     inkscape:document-units="px"
     inkscape:current-layer="layer1"
     showgrid="true"
     inkscape:snap-bbox="true"
     inkscape:object-nodes="true"
     inkscape:snap-bbox-midpoints="true"
     showguides="false"
     inkscape:window-width="1600"
     inkscape:window-height="837"
     inkscape:window-x="-8"
     inkscape:window-y="-8"
     inkscape:window-maximized="1"
     fit-margin-top="0"
     fit-margin-left="0"
     fit-margin-right="0"
     fit-margin-bottom="0"
     inkscape:snap-global="true">
    <inkscape:grid
       type="xygrid"
       id="grid18052"
       units="mm"
       spacingx="1.7716536"
       spacingy="1.7716536"
       originx="-246.64569"
       originy="-752.45272" />
  </sodipodi:namedview>
  <defs
     id="defs16992">
    <marker
       inkscape:isstock="true"
       style="overflow:visible;"
       id="Arrow2Mend"
       refX="0.0"
       refY="0.0"
       orient="auto"
       inkscape:stockid="Arrow2Mend">
      <path
         transform="scale(0.6) rotate(180) translate(0,0)"
         d="M 8.7185878,4.0337352 L -2.2072895,0.016013256 L 8.7185884,-4.0017078 C 6.9730900,-1.6296469 6.9831476,1.6157441 8.7185878,4.0337352 z "
         style="fill-rule:evenodd;stroke-width:0.625;stroke-linejoin:round;stroke:#000000;stroke-opacity:1;fill:#000000;fill-opacity:1"
         id="path4475" />
    </marker>
    <marker
       style="overflow:visible"
       id="marker11348"
       refX="0"
       refY="0"
       orient="auto"
       inkscape:stockid="Arrow2Mend">
      <path
         inkscape:connector-curvature="0"
         transform="scale(-0.6,-0.6)"
         d="M 8.7185878,4.0337352 -2.2072895,0.01601326 8.7185884,-4.0017078 c -1.7454984,2.3720609 -1.7354408,5.6174519 -6e-7,8.035443 z"
         style="font-size:12px;fill-rule:evenodd;stroke-width:0.625;stroke-linejoin:round"
         id="path11350" />
    </marker>
    <marker
       inkscape:stockid="Arrow2Mstart"
       orient="auto"
       refY="0"
       refX="0"
       id="Arrow2Mstart"
       style="overflow:visible">
      <path
         inkscape:connector-curvature="0"
         id="path9565"
         style="font-size:12px;fill-rule:evenodd;stroke-width:0.625;stroke-linejoin:round"
         d="M 8.7185878,4.0337352 -2.2072895,0.01601326 8.7185884,-4.0017078 c -1.7454984,2.3720609 -1.7354408,5.6174519 -6e-7,8.035443 z"
         transform="scale(0.6,0.6)" />
    </marker>
    <marker
       style="overflow:visible"
       id="marker16757"
       refX="0"
       refY="0"
       orient="auto"
       inkscape:stockid="Arrow2Mend">
      <path
         inkscape:connector-curvature="0"
         transform="scale(-0.6,-0.6)"
         d="M 8.7185878,4.0337352 -2.2072895,0.01601326 8.7185884,-4.0017078 c -1.7454984,2.3720609 -1.7354408,5.6174519 -6e-7,8.035443 z"
         style="font-size:12px;fill-rule:evenodd;stroke-width:0.625;stroke-linejoin:round"
         id="path16759" />
    </marker>
    <marker
       inkscape:stockid="Arrow2Mstart"
       orient="auto"
       refY="0"
       refX="0"
       id="marker16761"
       style="overflow:visible">
      <path
         inkscape:connector-curvature="0"
         id="path16763"
         style="font-size:12px;fill-rule:evenodd;stroke-width:0.625;stroke-linejoin:round"
         d="M 8.7185878,4.0337352 -2.2072895,0.01601326 8.7185884,-4.0017078 c -1.7454984,2.3720609 -1.7354408,5.6174519 -6e-7,8.035443 z"
         transform="scale(0.6,0.6)" />
    </marker>
    <marker
       style="overflow:visible"
       id="marker16765"
       refX="0"
       refY="0"
       orient="auto"
       inkscape:stockid="Arrow2Mend">
      <path
         inkscape:connector-curvature="0"
         transform="scale(-0.6,-0.6)"
         d="M 8.7185878,4.0337352 -2.2072895,0.01601326 8.7185884,-4.0017078 c -1.7454984,2.3720609 -1.7354408,5.6174519 -6e-7,8.035443 z"
         style="font-size:12px;fill-rule:evenodd;stroke-width:0.625;stroke-linejoin:round"
         id="path16767" />
    </marker>
    <marker
       inkscape:stockid="Arrow2Mstart"
       orient="auto"
       refY="0"
       refX="0"
       id="marker16769"
       style="overflow:visible">
      <path
         inkscape:connector-curvature="0"
         id="path16771"
         style="font-size:12px;fill-rule:evenodd;stroke-width:0.625;stroke-linejoin:round"
         d="M 8.7185878,4.0337352 -2.2072895,0.01601326 8.7185884,-4.0017078 c -1.7454984,2.3720609 -1.7354408,5.6174519 -6e-7,8.035443 z"
         transform="scale(0.6,0.6)" />
    </marker>
    <marker
       style="overflow:visible"
       id="marker16773"
       refX="0"
       refY="0"
       orient="auto"
       inkscape:stockid="Arrow2Mend">
      <path
         inkscape:connector-curvature="0"
         transform="scale(-0.6,-0.6)"
         d="M 8.7185878,4.0337352 -2.2072895,0.01601326 8.7185884,-4.0017078 c -1.7454984,2.3720609 -1.7354408,5.6174519 -6e-7,8.035443 z"
         style="font-size:12px;fill-rule:evenodd;stroke-width:0.625;stroke-linejoin:round"
         id="path16775" />
    </marker>
    <marker
       style="overflow:visible"
       id="marker16777"
       refX="0"
       refY="0"
       orient="auto"
       inkscape:stockid="Arrow2Mend">
      <path
         inkscape:connector-curvature="0"
         transform="scale(-0.6,-0.6)"
         d="M 8.7185878,4.0337352 -2.2072895,0.01601326 8.7185884,-4.0017078 c -1.7454984,2.3720609 -1.7354408,5.6174519 -6e-7,8.035443 z"
         style="font-size:12px;fill-rule:evenodd;stroke-width:0.625;stroke-linejoin:round"
         id="path16779" />
    </marker>
    <marker
       style="overflow:visible"
       id="marker16781"
       refX="0"
       refY="0"
       orient="auto"
       inkscape:stockid="Arrow2Mend">
      <path
         inkscape:connector-curvature="0"
         transform="scale(-0.6,-0.6)"
         d="M 8.7185878,4.0337352 -2.2072895,0.01601326 8.7185884,-4.0017078 c -1.7454984,2.3720609 -1.7354408,5.6174519 -6e-7,8.035443 z"
         style="font-size:12px;fill-rule:evenodd;stroke-width:0.625;stroke-linejoin:round"
         id="path16783" />
    </marker>
    <marker
       inkscape:stockid="Arrow2Send"
       orient="auto"
       refY="0"
       refX="0"
       id="Arrow2Send"
       style="overflow:visible">
      <path
         inkscape:connector-curvature="0"
         id="path9574"
         style="font-size:12px;fill-rule:evenodd;stroke-width:0.625;stroke-linejoin:round"
         d="M 8.7185878,4.0337352 -2.2072895,0.01601326 8.7185884,-4.0017078 c -1.7454984,2.3720609 -1.7354408,5.6174519 -6e-7,8.035443 z"
         transform="matrix(-0.3,0,0,-0.3,0.69,0)" />
    </marker>
    <marker
       inkscape:stockid="Arrow2Send"
       orient="auto"
       refY="0"
       refX="0"
       id="marker16787"
       style="overflow:visible">
      <path
         inkscape:connector-curvature="0"
         id="path16789"
         style="font-size:12px;fill-rule:evenodd;stroke-width:0.625;stroke-linejoin:round"
         d="M 8.7185878,4.0337352 -2.2072895,0.01601326 8.7185884,-4.0017078 c -1.7454984,2.3720609 -1.7354408,5.6174519 -6e-7,8.035443 z"
         transform="matrix(-0.3,0,0,-0.3,0.69,0)" />
    </marker>
    <marker
       inkscape:stockid="Arrow2Send"
       orient="auto"
       refY="0"
       refX="0"
       id="marker16791"
       style="overflow:visible">
      <path
         inkscape:connector-curvature="0"
         id="path16793"
         style="font-size:12px;fill-rule:evenodd;stroke-width:0.625;stroke-linejoin:round"
         d="M 8.7185878,4.0337352 -2.2072895,0.01601326 8.7185884,-4.0017078 c -1.7454984,2.3720609 -1.7354408,5.6174519 -6e-7,8.035443 z"
         transform="matrix(-0.3,0,0,-0.3,0.69,0)" />
    </marker>
  </defs>
  <metadata
     id="metadata16995">
    <rdf:RDF>
      <cc:Work
         rdf:about="">
        <dc:format>image/svg+xml</dc:format>
        <dc:type
           rdf:resource="http://purl.org/dc/dcmitype/StillImage" />
        <dc:title />
      </cc:Work>
    </rdf:RDF>
  </metadata>
  <g
     inkscape:label="Layer 1"
     inkscape:groupmode="layer"
     id="layer1"
     transform="translate(-246.64567,-127.57191)">
    <rect
       style="fill:#00b0ff;fill-opacity:0.50196081;stroke:#00b0ff;stroke-width:1;stroke-miterlimit:4;stroke-dasharray:none;stroke-dashoffset:0;stroke-opacity:1"
       id="rect4404-5"
       width="248.03149"
       height="171.33754"
       x="274.60635"
       y="128.0719" />
    <rect
       style="fill:#ffffff;fill-opacity:1;stroke:#00b0ff;stroke-width:1;stroke-miterlimit:4;stroke-dasharray:none;stroke-dashoffset:0;stroke-opacity:1"
       id="rect4404-5-9-5"
       width="62.0079"
       height="141.73228"
       x="442.91336"
       y="148.81889" />
    <rect
       style="fill:#ffffff;fill-opacity:1;stroke:#00b0ff;stroke-width:1;stroke-miterlimit:4;stroke-dasharray:none;stroke-dashoffset:0;stroke-opacity:1"
       id="rect4404-5-9"
       width="106.29924"
       height="141.73228"
       x="318.89761"
       y="148.81889" />
    <g
       id="g352"
       transform="matrix(1.25,0,0,-1.25,251.75717,147.64204)"
       style="fill:#ffb000;fill-opacity:0.50196081;stroke:#ffb000;stroke-opacity:1">
      <path
         d="m 160.01157,-8.0280879 35.4331,-5e-7 0,-99.2126016 -35.4331,0 z"
         style="fill:#ffb000;fill-opacity:0.50196081;stroke:#ffb000;stroke-width:0.63949603;stroke-linecap:butt;stroke-linejoin:miter;stroke-miterlimit:4;stroke-dasharray:none;stroke-opacity:1"
         id="path354"
         inkscape:connector-curvature="0"
         sodipodi:nodetypes="ccccc" />
    </g>
    <g
       id="g280"
       transform="matrix(1.25,0,0,-1.25,198.05957,147.64204)"
       style="fill:#00b000;fill-opacity:0.50196081;stroke:#00b000;stroke-opacity:1">
      <path
         d="m 103.75709,-8.0280878 70.86613,-6e-7 0,-99.2126016 -70.86615,0 z"
         style="fill:#00b000;fill-opacity:0.50196081;stroke:#00b000;stroke-width:0.63949603;stroke-linecap:butt;stroke-linejoin:miter;stroke-miterlimit:4;stroke-dasharray:none;stroke-opacity:1"
         id="path282"
         inkscape:connector-curvature="0"
         sodipodi:nodetypes="ccccc" />
    </g>
    <g
       transform="matrix(1,0,0,-1,231.93457,462.40153)"
       id="g46349-4-2"
       style="stroke-width:1;stroke-miterlimit:4;stroke-dasharray:none">
      <g
         id="g46340-8-4"
         style="stroke-width:1;stroke-miterlimit:4;stroke-dasharray:none">
        <g
           id="g46332-8-55"
           style="stroke-width:1;stroke-miterlimit:4;stroke-dasharray:none">
          <path
             inkscape:connector-curvature="0"
             style="fill:none;stroke:#000000;stroke-width:1;stroke-linecap:butt;stroke-linejoin:miter;stroke-miterlimit:4;stroke-dasharray:none;stroke-opacity:1"
             d="m 104.52756,246.25982 -3.54331,0"
             id="path45524-2-1" />
          <path
             inkscape:connector-curvature="0"
             style="fill:none;stroke:#000000;stroke-width:1;stroke-linecap:butt;stroke-linejoin:miter;stroke-miterlimit:4;stroke-dasharray:none;stroke-opacity:1;marker-end:url(#marker11348)"
             d="m 111.76626,253.34643 3.54331,0"
             id="path45542-4-7" />
          <path
             inkscape:connector-curvature="0"
             style="fill:none;stroke:#000000;stroke-width:1;stroke-linecap:round;stroke-linejoin:miter;stroke-miterlimit:4;stroke-dasharray:none;stroke-opacity:1"
             d="m 104.52756,240.94486 0,10.62992"
             id="path45544-5-11" />
          <path
             inkscape:connector-curvature="0"
             style="fill:none;stroke:#000000;stroke-width:1;stroke-linecap:round;stroke-linejoin:miter;stroke-miterlimit:4;stroke-dasharray:none;stroke-opacity:1"
             d="m 108.07087,235.66771 0,21.22413"
             id="path45550-5-5" />
          <path
             inkscape:connector-curvature="0"
             style="fill:none;stroke:#000000;stroke-width:1;stroke-linecap:butt;stroke-linejoin:round;stroke-miterlimit:4;stroke-dasharray:none;stroke-opacity:1"
             d="m 117.08122,235.6299 0,3.5433 -8.85826,0"
             id="path45552-1-2" />
          <path
             inkscape:connector-curvature="0"
             style="fill:none;stroke:#000000;stroke-width:1;stroke-linecap:butt;stroke-linejoin:round;stroke-miterlimit:4;stroke-dasharray:none;stroke-opacity:1"
             d="m 108.22296,253.34643 8.85826,0 0,3.54331"
             id="path45554-7-7" />
        </g>
      </g>
    </g>
    <g
       transform="translate(332.98057,226.76978)"
       id="g3510-1-6">
      <path
         inkscape:connector-curvature="0"
         style="fill:none;stroke:#000000;stroke-width:1;stroke-linecap:butt;stroke-linejoin:miter;stroke-miterlimit:4;stroke-dasharray:none;stroke-opacity:1;marker-start:url(#Arrow2Mstart);marker-mid:none;marker-end:none"
         d="m 55.011591,40.749894 3.54331,0"
         id="path45548-1-1" />
      <path
         inkscape:connector-curvature="0"
         style="fill:none;stroke:#000000;stroke-width:1;stroke-linecap:butt;stroke-linejoin:miter;stroke-miterlimit:4;stroke-dasharray:none;stroke-opacity:1"
         d="m 49.544551,33.663274 -3.54331,0"
         id="path45556-5-4" />
      <path
         inkscape:connector-curvature="0"
         style="fill:none;stroke:#000000;stroke-width:1;stroke-linecap:round;stroke-linejoin:miter;stroke-miterlimit:4;stroke-dasharray:none;stroke-opacity:1"
         d="m 49.544551,38.978234 0,-10.62992"
         id="path45558-2-2" />
      <path
         inkscape:connector-curvature="0"
         style="fill:none;stroke:#000000;stroke-width:1;stroke-linecap:round;stroke-linejoin:miter;stroke-miterlimit:4;stroke-dasharray:none;stroke-opacity:1"
         d="m 53.087851,44.255394 0,-21.22413"
         id="path45560-7-32" />
      <path
         inkscape:connector-curvature="0"
         style="fill:none;stroke:#000000;stroke-width:1;stroke-linecap:butt;stroke-linejoin:round;stroke-miterlimit:4;stroke-dasharray:none;stroke-opacity:1"
         d="m 62.098211,44.293204 0,-3.54331 -8.85827,0"
         id="path45562-6-2" />
      <path
         inkscape:connector-curvature="0"
         style="fill:none;stroke:#000000;stroke-width:1;stroke-linecap:butt;stroke-linejoin:round;stroke-miterlimit:4;stroke-dasharray:none;stroke-opacity:1"
         d="m 53.239941,26.576664 8.85827,0 0,-3.54331"
         id="path45564-1-1" />
    </g>
    <g
       transform="matrix(0,1,1,0,430.51207,175.3937)"
       id="g6809-2-7">
      <g
         id="g3285-2-6">
        <g
           id="g3586-1-1">
          <path
             inkscape:connector-curvature="0"
             style="fill:none;stroke:#000000;stroke-width:1;stroke-linecap:butt;stroke-linejoin:miter;stroke-miterlimit:4;stroke-dasharray:none;stroke-opacity:1"
             d="m 62.00786,33.63242 0,7.35827"
             id="path45526-6-8" />
          <path
             inkscape:connector-curvature="0"
             style="fill:none;stroke:#000000;stroke-width:1;stroke-linecap:butt;stroke-linejoin:miter;stroke-miterlimit:4;stroke-dasharray:none;stroke-opacity:1"
             d="m 62.00786,44.29111 0,7.0866"
             id="path45528-8-9" />
          <path
             inkscape:connector-curvature="0"
             style="fill:none;stroke:#000000;stroke-width:1;stroke-linecap:round;stroke-linejoin:miter;stroke-miterlimit:4;stroke-dasharray:none;stroke-opacity:1"
             d="m 67.32282,40.74779 -10.62993,0"
             id="path45530-5-2" />
          <path
             inkscape:connector-curvature="0"
             style="fill:none;stroke:#000000;stroke-width:1;stroke-linecap:round;stroke-linejoin:miter;stroke-miterlimit:4;stroke-dasharray:none;stroke-opacity:1"
             d="m 67.32283,44.29109 -10.62993,0"
             id="path45532-7-7" />
        </g>
        <path
           inkscape:connector-curvature="0"
           id="path49999-6-9"
           d="m 62.007874,51.377931 0,-3.54331"
           style="fill:none;stroke:#000000;stroke-width:1;stroke-linecap:butt;stroke-linejoin:miter;stroke-miterlimit:4;stroke-dasharray:none;stroke-opacity:1" />
      </g>
    </g>
    <g
       transform="matrix(-1,0,0,-1,512.15997,462.40153)"
       id="g46349-4-7-5"
       style="stroke-width:1;stroke-miterlimit:4;stroke-dasharray:none">
      <g
         id="g46340-8-9-4"
         style="stroke-width:1;stroke-miterlimit:4;stroke-dasharray:none">
        <g
           id="g46332-8-5-3"
           style="stroke-width:1;stroke-miterlimit:4;stroke-dasharray:none">
          <path
             inkscape:connector-curvature="0"
             style="fill:none;stroke:#000000;stroke-width:1;stroke-linecap:butt;stroke-linejoin:miter;stroke-miterlimit:4;stroke-dasharray:none;stroke-opacity:1"
             d="m 104.52756,246.25982 -3.54331,0"
             id="path45524-2-4-1" />
          <path
             inkscape:connector-curvature="0"
             style="fill:none;stroke:#000000;stroke-width:1;stroke-linecap:butt;stroke-linejoin:miter;stroke-miterlimit:4;stroke-dasharray:none;stroke-opacity:1;marker-end:url(#marker11348)"
             d="m 111.76626,253.34643 3.54331,0"
             id="path45542-4-3-2" />
          <path
             inkscape:connector-curvature="0"
             style="fill:none;stroke:#000000;stroke-width:1;stroke-linecap:round;stroke-linejoin:miter;stroke-miterlimit:4;stroke-dasharray:none;stroke-opacity:1"
             d="m 104.52756,240.94486 0,10.62992"
             id="path45544-5-1-3" />
          <path
             inkscape:connector-curvature="0"
             style="fill:none;stroke:#000000;stroke-width:1;stroke-linecap:round;stroke-linejoin:miter;stroke-miterlimit:4;stroke-dasharray:none;stroke-opacity:1"
             d="m 108.07087,235.66771 0,21.22413"
             id="path45550-5-2-3" />
          <path
             inkscape:connector-curvature="0"
             style="fill:none;stroke:#000000;stroke-width:1;stroke-linecap:butt;stroke-linejoin:round;stroke-miterlimit:4;stroke-dasharray:none;stroke-opacity:1"
             d="m 117.08122,235.6299 0,3.5433 -8.85826,0"
             id="path45552-1-3-4" />
          <path
             inkscape:connector-curvature="0"
             style="fill:none;stroke:#000000;stroke-width:1;stroke-linecap:butt;stroke-linejoin:round;stroke-miterlimit:4;stroke-dasharray:none;stroke-opacity:1"
             d="m 108.22296,253.34643 8.85826,0 0,3.54331"
             id="path45554-7-3-1" />
        </g>
      </g>
    </g>
    <g
       transform="matrix(-1,0,0,1,411.11407,226.76977)"
       id="g3510-1-2-4">
      <path
         inkscape:connector-curvature="0"
         style="fill:none;stroke:#000000;stroke-width:1;stroke-linecap:butt;stroke-linejoin:miter;stroke-miterlimit:4;stroke-dasharray:none;stroke-opacity:1;marker-start:url(#Arrow2Mstart);marker-mid:none;marker-end:none"
         d="m 55.011591,40.749894 3.54331,0"
         id="path45548-1-7-2" />
      <path
         sodipodi:nodetypes="cc"
         inkscape:connector-curvature="0"
         style="fill:none;stroke:#000000;stroke-width:1;stroke-linecap:butt;stroke-linejoin:miter;stroke-miterlimit:4;stroke-dasharray:none;stroke-opacity:1"
         d="m 49.544551,33.663274 -5.162849,1.2e-5"
         id="path45556-5-7-7" />
      <path
         inkscape:connector-curvature="0"
         style="fill:none;stroke:#000000;stroke-width:1;stroke-linecap:round;stroke-linejoin:miter;stroke-miterlimit:4;stroke-dasharray:none;stroke-opacity:1"
         d="m 49.544551,38.978234 0,-10.62992"
         id="path45558-2-9-7" />
      <path
         inkscape:connector-curvature="0"
         style="fill:none;stroke:#000000;stroke-width:1;stroke-linecap:round;stroke-linejoin:miter;stroke-miterlimit:4;stroke-dasharray:none;stroke-opacity:1"
         d="m 53.087851,44.255394 0,-21.22413"
         id="path45560-7-3-9" />
      <path
         inkscape:connector-curvature="0"
         style="fill:none;stroke:#000000;stroke-width:1;stroke-linecap:butt;stroke-linejoin:round;stroke-miterlimit:4;stroke-dasharray:none;stroke-opacity:1"
         d="m 62.098211,44.293204 0,-3.54331 -8.85827,0"
         id="path45562-6-1-3" />
      <path
         inkscape:connector-curvature="0"
         style="fill:none;stroke:#000000;stroke-width:1;stroke-linecap:butt;stroke-linejoin:round;stroke-miterlimit:4;stroke-dasharray:none;stroke-opacity:1"
         d="m 53.239941,26.576664 8.85827,0 0,-3.54331"
         id="path45564-1-9-1" />
    </g>
    <path
       sodipodi:nodetypes="cccc"
       style="fill:none;stroke:#000000;stroke-width:1px;stroke-linecap:butt;stroke-linejoin:miter;stroke-opacity:1"
       d="m 349.01567,246.25984 17.7166,0 0,14.17322 7.0866,0"
       id="path5416-5"
       inkscape:connector-curvature="0" />
    <path
       sodipodi:nodetypes="cc"
       style="fill:none;stroke:#000000;stroke-width:1px;stroke-linecap:butt;stroke-linejoin:miter;stroke-opacity:1"
       d="m 373.81887,260.43306 8.8583,0"
       id="path5418-0"
       inkscape:connector-curvature="0" />
    <path
       style="fill:none;stroke:#000000;stroke-width:1px;stroke-linecap:butt;stroke-linejoin:miter;stroke-opacity:1"
       d="m 349.01587,237.40155 0,12.40159"
       id="path5420-2"
       inkscape:connector-curvature="0" />
    <path
       style="fill:none;stroke:#000000;stroke-width:1px;stroke-linecap:butt;stroke-linejoin:miter;stroke-opacity:1"
       d="m 395.07877,237.40155 0,12.40159"
       id="path5422-8"
       inkscape:connector-curvature="0" />
    <g
       transform="matrix(1,0,0,-1,262.05267,425.19681)"
       id="g46349-4-4-5"
       style="stroke-width:1;stroke-miterlimit:4;stroke-dasharray:none">
      <g
         id="g46340-8-8-0"
         style="stroke-width:1;stroke-miterlimit:4;stroke-dasharray:none">
        <g
           id="g46332-8-6-9"
           style="stroke-width:1;stroke-miterlimit:4;stroke-dasharray:none">
          <path
             inkscape:connector-curvature="0"
             style="fill:none;stroke:#000000;stroke-width:1;stroke-linecap:butt;stroke-linejoin:miter;stroke-miterlimit:4;stroke-dasharray:none;stroke-opacity:1"
             d="m 104.52756,246.25982 -3.54331,0"
             id="path45524-2-5-0" />
          <path
             inkscape:connector-curvature="0"
             style="fill:none;stroke:#000000;stroke-width:1;stroke-linecap:butt;stroke-linejoin:miter;stroke-miterlimit:4;stroke-dasharray:none;stroke-opacity:1;marker-end:url(#marker11348)"
             d="m 111.76626,253.34643 3.54331,0"
             id="path45542-4-0-06" />
          <path
             inkscape:connector-curvature="0"
             style="fill:none;stroke:#000000;stroke-width:1;stroke-linecap:round;stroke-linejoin:miter;stroke-miterlimit:4;stroke-dasharray:none;stroke-opacity:1"
             d="m 104.52756,240.94486 0,10.62992"
             id="path45544-5-9-13" />
          <path
             inkscape:connector-curvature="0"
             style="fill:none;stroke:#000000;stroke-width:1;stroke-linecap:round;stroke-linejoin:miter;stroke-miterlimit:4;stroke-dasharray:none;stroke-opacity:1"
             d="m 108.07087,235.66771 0,21.22413"
             id="path45550-5-0-8" />
          <path
             inkscape:connector-curvature="0"
             style="fill:none;stroke:#000000;stroke-width:1;stroke-linecap:butt;stroke-linejoin:round;stroke-miterlimit:4;stroke-dasharray:none;stroke-opacity:1"
             d="m 117.08122,235.6299 0,3.5433 -8.85826,0"
             id="path45552-1-0-9" />
          <path
             inkscape:connector-curvature="0"
             style="fill:none;stroke:#000000;stroke-width:1;stroke-linecap:butt;stroke-linejoin:round;stroke-miterlimit:4;stroke-dasharray:none;stroke-opacity:1"
             d="m 108.22296,253.34643 8.85826,0 0,3.54331"
             id="path45554-7-6-3" />
        </g>
      </g>
    </g>
    <path
       style="fill:none;stroke:#000000;stroke-width:1px;stroke-linecap:butt;stroke-linejoin:miter;stroke-opacity:1"
       d="m 379.13387,189.56692 0,5.31496"
       id="path5513-6"
       inkscape:connector-curvature="0" />
    <path
       style="fill:none;stroke:#000000;stroke-width:1px;stroke-linecap:butt;stroke-linejoin:miter;stroke-opacity:1"
       d="m 349.01577,201.96849 0,5.31495"
       id="path5515-1"
       inkscape:connector-curvature="0" />
    <g
       transform="translate(419.79147,226.76977)"
       id="g3510-1-0-8">
      <path
         inkscape:connector-curvature="0"
         style="fill:none;stroke:#000000;stroke-width:1;stroke-linecap:butt;stroke-linejoin:miter;stroke-miterlimit:4;stroke-dasharray:none;stroke-opacity:1;marker-start:url(#Arrow2Mstart);marker-mid:none;marker-end:none"
         d="m 55.011591,40.749894 3.54331,0"
         id="path45548-1-6-4" />
      <path
         inkscape:connector-curvature="0"
         style="fill:none;stroke:#000000;stroke-width:1;stroke-linecap:butt;stroke-linejoin:miter;stroke-miterlimit:4;stroke-dasharray:none;stroke-opacity:1"
         d="m 49.544551,33.663274 -3.54331,0"
         id="path45556-5-6-9" />
      <path
         inkscape:connector-curvature="0"
         style="fill:none;stroke:#000000;stroke-width:1;stroke-linecap:round;stroke-linejoin:miter;stroke-miterlimit:4;stroke-dasharray:none;stroke-opacity:1"
         d="m 49.544551,38.978234 0,-10.62992"
         id="path45558-2-1-6" />
      <path
         inkscape:connector-curvature="0"
         style="fill:none;stroke:#000000;stroke-width:1;stroke-linecap:round;stroke-linejoin:miter;stroke-miterlimit:4;stroke-dasharray:none;stroke-opacity:1"
         d="m 53.087851,44.255394 0,-21.22413"
         id="path45560-7-8-3" />
      <path
         inkscape:connector-curvature="0"
         style="fill:none;stroke:#000000;stroke-width:1;stroke-linecap:butt;stroke-linejoin:round;stroke-miterlimit:4;stroke-dasharray:none;stroke-opacity:1"
         d="m 62.098211,44.293204 0,-3.54331 -8.85827,0"
         id="path45562-6-4-7" />
      <path
         inkscape:connector-curvature="0"
         style="fill:none;stroke:#000000;stroke-width:1;stroke-linecap:butt;stroke-linejoin:round;stroke-miterlimit:4;stroke-dasharray:none;stroke-opacity:1"
         d="m 53.239941,26.576664 8.85827,0 0,-3.54331"
         id="path45564-1-96-8" />
    </g>
    <g
       transform="matrix(1,0,0,-1,364.80847,425.19681)"
       id="g46349-4-4-1-1"
       style="stroke-width:1;stroke-miterlimit:4;stroke-dasharray:none">
      <g
         id="g46340-8-8-3-3"
         style="stroke-width:1;stroke-miterlimit:4;stroke-dasharray:none">
        <g
           id="g46332-8-6-5-5"
           style="stroke-width:1;stroke-miterlimit:4;stroke-dasharray:none">
          <path
             inkscape:connector-curvature="0"
             style="fill:none;stroke:#000000;stroke-width:1;stroke-linecap:butt;stroke-linejoin:miter;stroke-miterlimit:4;stroke-dasharray:none;stroke-opacity:1"
             d="m 104.52756,246.25982 -3.54331,0"
             id="path45524-2-5-9-9" />
          <path
             inkscape:connector-curvature="0"
             style="fill:none;stroke:#000000;stroke-width:1;stroke-linecap:butt;stroke-linejoin:miter;stroke-miterlimit:4;stroke-dasharray:none;stroke-opacity:1;marker-end:url(#marker11348)"
             d="m 111.76626,253.34643 3.54331,0"
             id="path45542-4-0-8-8" />
          <path
             inkscape:connector-curvature="0"
             style="fill:none;stroke:#000000;stroke-width:1;stroke-linecap:round;stroke-linejoin:miter;stroke-miterlimit:4;stroke-dasharray:none;stroke-opacity:1"
             d="m 104.52756,240.94486 0,10.62992"
             id="path45544-5-9-4-4" />
          <path
             inkscape:connector-curvature="0"
             style="fill:none;stroke:#000000;stroke-width:1;stroke-linecap:round;stroke-linejoin:miter;stroke-miterlimit:4;stroke-dasharray:none;stroke-opacity:1"
             d="m 108.07087,235.66771 0,21.22413"
             id="path45550-5-0-0-0" />
          <path
             inkscape:connector-curvature="0"
             style="fill:none;stroke:#000000;stroke-width:1;stroke-linecap:butt;stroke-linejoin:round;stroke-miterlimit:4;stroke-dasharray:none;stroke-opacity:1"
             d="m 117.08122,235.6299 0,3.5433 -8.85826,0"
             id="path45552-1-0-7-7" />
          <path
             inkscape:connector-curvature="0"
             style="fill:none;stroke:#000000;stroke-width:1;stroke-linecap:butt;stroke-linejoin:round;stroke-miterlimit:4;stroke-dasharray:none;stroke-opacity:1"
             d="m 108.22296,253.34643 8.85826,0 0,3.54331"
             id="path45554-7-6-6-6" />
        </g>
      </g>
    </g>
    <path
       style="fill:none;stroke:#000000;stroke-width:1px;stroke-linecap:butt;stroke-linejoin:miter;stroke-opacity:1"
       d="m 395.07877,237.40157 65.5511,0"
       id="path5625-5"
       inkscape:connector-curvature="0"
       sodipodi:nodetypes="cc" />
    <path
       style="fill:none;stroke:#000000;stroke-width:1px;stroke-linecap:butt;stroke-linejoin:miter;stroke-opacity:1"
       d="m 469.48807,260.43304 -8.8582,2e-5 0,-23.03149"
       id="path5627-4"
       inkscape:connector-curvature="0"
       sodipodi:nodetypes="ccc" />
    <path
       sodipodi:nodetypes="cc"
       style="fill:none;stroke:#000000;stroke-width:1px;stroke-linecap:butt;stroke-linejoin:miter;stroke-opacity:1"
       d="m 481.88967,189.56692 0,60.23622"
       id="path5629-2"
       inkscape:connector-curvature="0" />
    <path
       sodipodi:nodetypes="cc"
       style="fill:none;stroke:#000000;stroke-width:1px;stroke-linecap:butt;stroke-linejoin:miter;stroke-opacity:1"
       d="m 478.34647,237.40157 3.5433,0"
       id="path5631-0"
       inkscape:connector-curvature="0" />
    <path
       style="fill:none;stroke:#000000;stroke-width:1px;stroke-linecap:butt;stroke-linejoin:miter;stroke-opacity:1"
       d="m 487.20477,161.22047 -26.5748,0"
       id="path5633-9"
       inkscape:connector-curvature="0"
       sodipodi:nodetypes="cc" />
    <path
       style="fill:none;stroke:#000000;stroke-width:1px;stroke-linecap:butt;stroke-linejoin:miter;stroke-opacity:1"
       d="m 481.88967,161.22047 0,7.08661"
       id="path5635-7"
       inkscape:connector-curvature="0" />
    <path
       style="fill:none;stroke:#000000;stroke-width:1px;stroke-linecap:butt;stroke-linejoin:miter;stroke-opacity:1"
       d="m 379.13387,161.22047 0,7.08661"
       id="path5637-3"
       inkscape:connector-curvature="0" />
    <path
       style="fill:none;stroke:#000000;stroke-width:1px;stroke-linecap:butt;stroke-linejoin:miter;stroke-opacity:1"
       d="m 462.40147,178.93699 3.3912,0"
       id="path5643-6"
       inkscape:connector-curvature="0"
       sodipodi:nodetypes="cc" />
    <path
       style="fill:none;stroke:#000000;stroke-width:1px;stroke-linecap:butt;stroke-linejoin:miter;stroke-opacity:1"
       d="m 363.18897,178.937 -3.5433,0"
       id="path5645-0"
       inkscape:connector-curvature="0"
       sodipodi:nodetypes="cc" />
    <path
       style="fill:none;stroke:#000000;stroke-width:1px;stroke-linecap:butt;stroke-linejoin:miter;stroke-opacity:1"
       d="m 329.52757,216.14173 3.5433,0"
       id="path5683-5"
       inkscape:connector-curvature="0" />
    <path
       style="fill:none;stroke:#000000;stroke-width:1px;stroke-linecap:butt;stroke-linejoin:miter;stroke-opacity:1"
       d="m 481.88977,216.14173 60.2362,0"
       id="path5685-0-4"
       inkscape:connector-curvature="0"
       sodipodi:nodetypes="cc" />
    <path
       sodipodi:nodetypes="cc"
       inkscape:connector-curvature="0"
       id="path16547"
       d="m 349.01577,201.96849 46.063,0"
       style="fill:none;stroke:#000000;stroke-width:1px;stroke-linecap:butt;stroke-linejoin:miter;stroke-opacity:1" />
    <path
       inkscape:connector-curvature="0"
       id="path16549"
       d="m 395.07877,205.5118 0,-3.54331"
       style="fill:none;stroke:#000000;stroke-width:1px;stroke-linecap:butt;stroke-linejoin:miter;stroke-opacity:1" />
    <path
       inkscape:connector-curvature="0"
       id="path16551"
       d="m 379.13387,201.96849 0,-7.08662"
       style="fill:none;stroke:#000000;stroke-width:1px;stroke-linecap:butt;stroke-linejoin:miter;stroke-opacity:1" />
    <path
       inkscape:connector-curvature="0"
       id="path16553"
       d="m 349.01577,226.77164 0,10.62993"
       style="fill:none;stroke:#000000;stroke-width:1px;stroke-linecap:butt;stroke-linejoin:miter;stroke-opacity:1" />
    <path
       inkscape:connector-curvature="0"
       id="path16555"
       d="m 395.07877,226.77164 0,10.62993"
       style="fill:none;stroke:#000000;stroke-width:1px;stroke-linecap:butt;stroke-linejoin:miter;stroke-opacity:1" />
    <g
       id="g3602-82"
       transform="translate(251.57487,164.76357)">
      <path
         id="path46259-6"
         d="m 92.12598,109.8425 10.62992,0"
         style="fill:none;stroke:#000000;stroke-width:1;stroke-linecap:round;stroke-linejoin:miter;stroke-miterlimit:4;stroke-dasharray:none;stroke-opacity:1"
         inkscape:connector-curvature="0" />
      <path
         id="path46261-6"
         d="m 93.89763,111.61437 7.08661,0"
         style="fill:none;stroke:#000000;stroke-width:1;stroke-linecap:round;stroke-linejoin:miter;stroke-miterlimit:4;stroke-dasharray:none;stroke-opacity:1"
         inkscape:connector-curvature="0" />
      <path
         id="path46263-0"
         d="m 95.66928,113.38581 3.54331,0"
         style="fill:none;stroke:#000000;stroke-width:1;stroke-linecap:round;stroke-linejoin:miter;stroke-miterlimit:4;stroke-dasharray:none;stroke-opacity:1"
         inkscape:connector-curvature="0" />
      <path
         id="path46265-3"
         d="m 97.44094,109.4675 0,-5.31496"
         style="fill:none;stroke:#000000;stroke-width:1;stroke-linecap:butt;stroke-linejoin:miter;stroke-miterlimit:4;stroke-dasharray:none;stroke-opacity:1"
         inkscape:connector-curvature="0" />
    </g>
    <g
       id="g3602-82-8"
       transform="translate(297.63777,164.7638)">
      <path
         id="path46259-6-0"
         d="m 92.12598,109.8425 10.62992,0"
         style="fill:none;stroke:#000000;stroke-width:1;stroke-linecap:round;stroke-linejoin:miter;stroke-miterlimit:4;stroke-dasharray:none;stroke-opacity:1"
         inkscape:connector-curvature="0" />
      <path
         id="path46261-6-1"
         d="m 93.89763,111.61437 7.08661,0"
         style="fill:none;stroke:#000000;stroke-width:1;stroke-linecap:round;stroke-linejoin:miter;stroke-miterlimit:4;stroke-dasharray:none;stroke-opacity:1"
         inkscape:connector-curvature="0" />
      <path
         id="path46263-0-2"
         d="m 95.66928,113.38581 3.54331,0"
         style="fill:none;stroke:#000000;stroke-width:1;stroke-linecap:round;stroke-linejoin:miter;stroke-miterlimit:4;stroke-dasharray:none;stroke-opacity:1"
         inkscape:connector-curvature="0" />
      <path
         id="path46265-3-5"
         d="m 97.44094,109.4675 0,-5.31496"
         style="fill:none;stroke:#000000;stroke-width:1;stroke-linecap:butt;stroke-linejoin:miter;stroke-miterlimit:4;stroke-dasharray:none;stroke-opacity:1"
         inkscape:connector-curvature="0" />
    </g>
    <g
       id="g3602-82-8-0"
       transform="translate(384.44877,164.7638)">
      <path
         id="path46259-6-0-9"
         d="m 92.12598,109.8425 10.62992,0"
         style="fill:none;stroke:#000000;stroke-width:1;stroke-linecap:round;stroke-linejoin:miter;stroke-miterlimit:4;stroke-dasharray:none;stroke-opacity:1"
         inkscape:connector-curvature="0" />
      <path
         id="path46261-6-1-4"
         d="m 93.89763,111.61437 7.08661,0"
         style="fill:none;stroke:#000000;stroke-width:1;stroke-linecap:round;stroke-linejoin:miter;stroke-miterlimit:4;stroke-dasharray:none;stroke-opacity:1"
         inkscape:connector-curvature="0" />
      <path
         id="path46263-0-2-7"
         d="m 95.66928,113.38581 3.54331,0"
         style="fill:none;stroke:#000000;stroke-width:1;stroke-linecap:round;stroke-linejoin:miter;stroke-miterlimit:4;stroke-dasharray:none;stroke-opacity:1"
         inkscape:connector-curvature="0" />
      <path
         id="path46265-3-5-8"
         d="m 97.44094,109.4675 0,-5.31496"
         style="fill:none;stroke:#000000;stroke-width:1;stroke-linecap:butt;stroke-linejoin:miter;stroke-miterlimit:4;stroke-dasharray:none;stroke-opacity:1"
         inkscape:connector-curvature="0" />
    </g>
    <path
       sodipodi:nodetypes="ccc"
       style="fill:none;stroke:#000000;stroke-width:1px;stroke-linecap:butt;stroke-linejoin:miter;stroke-opacity:1"
       d="m 471.25987,237.40157 -10.6299,0 0,10.62992"
       id="path16817"
       inkscape:connector-curvature="0" />
    <g
       transform="translate(86.92147,-109.8425)"
       id="g4215-1">
      <circle
         transform="translate(0.7753808,88.582676)"
         id="path7917-89"
         style="fill:none;stroke:#000000;stroke-width:1;stroke-linecap:round;stroke-linejoin:round;stroke-miterlimit:4;stroke-dasharray:none;stroke-opacity:1"
         cx="168.30708"
         cy="237.40155"
         r="8.8582678" />
      <path
         inkscape:connector-curvature="0"
         id="path7919-84"
         d="m 163.7675,329.52754 10.62992,0"
         style="fill:none;stroke:#000000;stroke-width:1;stroke-linecap:butt;stroke-linejoin:miter;stroke-miterlimit:4;stroke-dasharray:none;stroke-opacity:1" />
      <path
         inkscape:connector-curvature="0"
         sodipodi:nodetypes="cc"
         id="path7921-1"
         d="m 165.53916,329.52754 0,-7.08662"
         style="fill:none;stroke:#000000;stroke-width:1;stroke-linecap:butt;stroke-linejoin:miter;stroke-miterlimit:4;stroke-dasharray:none;stroke-opacity:1;marker-end:url(#Arrow2Send)" />
      <path
         inkscape:connector-curvature="0"
         sodipodi:nodetypes="cc"
         id="path7923-4"
         d="m 169.08246,329.52754 0,-7.08662"
         style="fill:none;stroke:#000000;stroke-width:1;stroke-linecap:butt;stroke-linejoin:miter;stroke-miterlimit:4;stroke-dasharray:none;stroke-opacity:1;marker-end:url(#Arrow2Send)" />
      <path
         inkscape:connector-curvature="0"
         sodipodi:nodetypes="cc"
         id="path7925-39"
         d="m 172.62577,329.52754 0,-7.08662"
         style="fill:none;stroke:#000000;stroke-width:1;stroke-linecap:butt;stroke-linejoin:miter;stroke-miterlimit:4;stroke-dasharray:none;stroke-opacity:1;marker-end:url(#Arrow2Send)" />
    </g>
    <g
       transform="matrix(-1,0,0,-1,604.13377,267.51944)"
       id="g6809-2-7-8">
      <g
         id="g3285-2-6-8">
        <g
           id="g3586-1-1-0">
          <path
             inkscape:connector-curvature="0"
             style="fill:none;stroke:#000000;stroke-width:1;stroke-linecap:butt;stroke-linejoin:miter;stroke-miterlimit:4;stroke-dasharray:none;stroke-opacity:1"
             d="m 62.00786,33.63242 0,7.35827"
             id="path45526-6-8-8" />
          <path
             inkscape:connector-curvature="0"
             style="fill:none;stroke:#000000;stroke-width:1;stroke-linecap:butt;stroke-linejoin:miter;stroke-miterlimit:4;stroke-dasharray:none;stroke-opacity:1"
             d="m 62.00786,44.29111 0,7.0866"
             id="path45528-8-9-7" />
          <path
             inkscape:connector-curvature="0"
             style="fill:none;stroke:#000000;stroke-width:1;stroke-linecap:round;stroke-linejoin:miter;stroke-miterlimit:4;stroke-dasharray:none;stroke-opacity:1"
             d="m 67.32282,40.74779 -10.62993,0"
             id="path45530-5-2-7" />
          <path
             inkscape:connector-curvature="0"
             style="fill:none;stroke:#000000;stroke-width:1;stroke-linecap:round;stroke-linejoin:miter;stroke-miterlimit:4;stroke-dasharray:none;stroke-opacity:1"
             d="m 67.32283,44.29109 -10.62993,0"
             id="path45532-7-7-8" />
        </g>
        <path
           inkscape:connector-curvature="0"
           id="path49999-6-9-3"
           d="m 62.007874,51.377931 0,-3.54331"
           style="fill:none;stroke:#000000;stroke-width:1;stroke-linecap:butt;stroke-linejoin:miter;stroke-miterlimit:4;stroke-dasharray:none;stroke-opacity:1" />
      </g>
    </g>
    <path
       style="fill:none;stroke:#000000;stroke-width:1;stroke-linecap:butt;stroke-linejoin:round;stroke-miterlimit:4;stroke-dasharray:none;stroke-opacity:1"
       d="m 402.16537,139.96062 3.5433,0 1.7716,3.5433 3.5433,-7.08662 3.5434,7.08662 3.5433,-7.08662 3.5433,7.08662 3.5433,-7.08662 1.7716,3.54331 8.8583,0"
       id="path45546-4-8"
       sodipodi:nodetypes="cccccccccc"
       inkscape:connector-curvature="0" />
    <path
       style="fill:none;stroke:#000000;stroke-width:1;stroke-linecap:butt;stroke-linejoin:round;stroke-miterlimit:4;stroke-dasharray:none;stroke-opacity:1"
       d="m 278.14957,216.14173 3.5433,0 1.7716,-3.54331 3.5433,7.08662 3.5433,-7.08662 3.5434,7.08662 3.5433,-7.08662 3.5433,7.08662 1.7716,-3.54331 8.8584,-1e-5"
       id="path45546-4-3"
       sodipodi:nodetypes="cccccccccc"
       inkscape:connector-curvature="0" />
    <path
       sodipodi:nodetypes="ccc"
       style="fill:none;stroke:#000000;stroke-width:1px;stroke-linecap:butt;stroke-linejoin:miter;stroke-opacity:1"
       d="m 318.89767,216.14173 -7.0866,0 0,-72.63781"
       id="path16940"
       inkscape:connector-curvature="0" />
    <path
       style="fill:none;stroke:#000000;stroke-width:1px;stroke-linecap:butt;stroke-linejoin:miter;stroke-opacity:1"
       d="m 318.01187,216.14173 12.4015,0"
       id="path16942"
       inkscape:connector-curvature="0" />
    <path
       sodipodi:nodetypes="ccc"
       style="fill:none;stroke:#000000;stroke-width:1px;stroke-linecap:butt;stroke-linejoin:miter;stroke-opacity:1"
       d="m 402.16537,139.96062 -90.3543,0 0,3.54329"
       id="path16944"
       inkscape:connector-curvature="0" />
    <path
       sodipodi:nodetypes="ccc"
       style="fill:none;stroke:#000000;stroke-width:1px;stroke-linecap:butt;stroke-linejoin:miter;stroke-opacity:1"
       d="m 434.05517,139.96062 79.7244,0 0,76.18111"
       id="path16946"
       inkscape:connector-curvature="0" />
    <path
       sodipodi:nodetypes="cc"
       style="fill:none;stroke:#000000;stroke-width:1px;stroke-linecap:butt;stroke-linejoin:miter;stroke-opacity:1"
       d="m 264.86217,216.14173 15.0591,0"
       id="path16948"
       inkscape:connector-curvature="0" />
    <path
       sodipodi:nodetypes="cc"
       style="fill:none;stroke:#000000;stroke-width:1px;stroke-linecap:butt;stroke-linejoin:miter;stroke-opacity:1"
       d="m 407.48037,216.14173 5.3149,0"
       id="path16950"
       inkscape:connector-curvature="0" />
    <path
       style="fill:none;stroke:#000000;stroke-width:1px;stroke-linecap:butt;stroke-linejoin:miter;stroke-opacity:1"
       d="m 412.79527,212.59842 0,7.08661"
       id="path16952"
       inkscape:connector-curvature="0" />
    <g
       id="g3602-82-8-7"
       transform="translate(444.68497,129.70572)">
      <path
         id="path46259-6-0-1"
         d="m 92.12598,109.8425 10.62992,0"
         style="fill:none;stroke:#000000;stroke-width:1;stroke-linecap:round;stroke-linejoin:miter;stroke-miterlimit:4;stroke-dasharray:none;stroke-opacity:1"
         inkscape:connector-curvature="0" />
      <path
         id="path46261-6-1-0"
         d="m 93.89763,111.61437 7.08661,0"
         style="fill:none;stroke:#000000;stroke-width:1;stroke-linecap:round;stroke-linejoin:miter;stroke-miterlimit:4;stroke-dasharray:none;stroke-opacity:1"
         inkscape:connector-curvature="0" />
      <path
         id="path46263-0-2-73"
         d="m 95.66928,113.38581 3.54331,0"
         style="fill:none;stroke:#000000;stroke-width:1;stroke-linecap:round;stroke-linejoin:miter;stroke-miterlimit:4;stroke-dasharray:none;stroke-opacity:1"
         inkscape:connector-curvature="0" />
      <path
         id="path46265-3-5-4"
         d="m 97.44094,109.4675 0,-5.31496"
         style="fill:none;stroke:#000000;stroke-width:1;stroke-linecap:butt;stroke-linejoin:miter;stroke-miterlimit:4;stroke-dasharray:none;stroke-opacity:1"
         inkscape:connector-curvature="0" />
    </g>
    <g
       transform="matrix(0.8,0,0,0.8,-596.63614,78.315345)"
       style="fill:#000000;fill-opacity:1"
       id="g26301">
      <path
         style="font-style:normal;font-variant:normal;font-weight:normal;font-stretch:normal;letter-spacing:normal;word-spacing:normal;text-anchor:start;fill:#000000;fill-opacity:1;stroke:#000000;stroke-width:0;stroke-linecap:butt;stroke-linejoin:miter;stroke-miterlimit:10.43299961;stroke-dasharray:none;stroke-dashoffset:0;stroke-opacity:1"
         inkscape:connector-curvature="0"
         d="m 1213.6825,168.1621 0,-0.045 0,-0.045 0,-0.045 0,-0.045 0.015,-0.045 0,-0.045 0,-0.03 0.015,-0.03 0,-0.045 0.015,-0.03 0.015,-0.03 0.015,-0.03 0.015,-0.015 0.03,-0.03 0.03,-0.015 0.015,-0.03 0.03,-0.015 0.045,-0.015 0.015,-0.015 0.015,0 0.03,-0.015 0.015,0 0.03,-0.015 0.015,0 0.03,-0.015 0.03,0 0.03,0 0.03,-0.015 0.03,0 0.03,0 0.03,-0.015 0.03,0 0.03,0 0.045,0 0.03,-0.015 0.045,0 0.045,0 0.045,0 0.03,0 0.045,0 0.06,0 0.045,-0.015 0.045,0 0.045,0 0.06,0 0.06,0 0.375,0 0,-0.465 c -0.51,0.06 -1.695,0.06 -2.265,0.06 -0.57,0 -1.755,0 -2.28,-0.06 l 0,0.465 0.39,0 c 1.185,0 1.23,0.165 1.23,0.705 l 0,7.845 c 0,0.54 -0.045,0.705 -1.23,0.705 l -0.39,0 0,0.465 c 0.525,-0.045 1.71,-0.045 2.265,-0.045 0.585,0 1.77,0 2.28,0.045 l 0,-0.465 -0.375,0 c -1.185,0 -1.23,-0.165 -1.23,-0.705 z"
         id="path21623" />
      <path
         style="font-style:normal;font-variant:normal;font-weight:normal;font-stretch:normal;letter-spacing:normal;word-spacing:normal;text-anchor:start;fill:#000000;fill-opacity:1;stroke:#000000;stroke-width:0;stroke-linecap:butt;stroke-linejoin:miter;stroke-miterlimit:10.43299961;stroke-dasharray:none;stroke-dashoffset:0;stroke-opacity:1"
         inkscape:connector-curvature="0"
         d="m 1219.1875,167.1871 -0.015,-0.015 -0.015,-0.015 -0.015,-0.015 0,-0.015 -0.015,0 -0.015,-0.015 0,-0.015 -0.015,-0.015 0,0 -0.015,-0.015 -0.015,0 0,-0.015 -0.015,0 -0.015,-0.015 0,0 -0.015,-0.015 -0.015,0 0,0 -0.015,0 -0.015,-0.015 -0.015,0 -0.015,0 -0.015,0 -0.015,0 -0.015,0 -0.015,0 -0.015,0 -0.03,0 -0.015,0 -0.015,0 -0.015,0 -0.015,0 0,0 -0.015,-0.015 -0.015,0 -2.535,0 0,0.465 0.435,0 c 0.225,0 0.51,0.015 0.735,0.03 0.345,0.045 0.36,0.06 0.36,0.345 l 0,7.785 c 0,0.39 0,1.095 -1.53,1.095 l 0,0.465 c 0.525,-0.015 1.245,-0.045 1.74,-0.045 0.495,0 1.23,0.03 1.755,0.045 l 0,-0.465 c -1.545,0 -1.545,-0.705 -1.545,-1.095 l 0,-7.755 c 0.075,0.075 0.09,0.09 0.15,0.18 l 6.09,8.94 c 0.135,0.18 0.15,0.195 0.255,0.195 0.21,0 0.21,-0.105 0.21,-0.39 l 0,-8.22 c 0,-0.405 0,-1.11 1.53,-1.11 l 0,-0.465 c -0.525,0.015 -1.245,0.06 -1.74,0.06 -0.495,0 -1.23,-0.045 -1.755,-0.06 l 0,0.465 c 1.545,0 1.545,0.705 1.545,1.11 l 0,6.36 z"
         id="path21625" />
    </g>
    <g
       transform="matrix(0.8,0,0,0.8,-516.05953,53.046465)"
       style="fill:#000000;fill-opacity:1"
       id="g26305">
      <path
         style="font-style:normal;font-variant:normal;font-weight:normal;font-stretch:normal;letter-spacing:normal;word-spacing:normal;text-anchor:start;fill:#000000;fill-opacity:1;stroke:#000000;stroke-width:0;stroke-linecap:butt;stroke-linejoin:miter;stroke-miterlimit:10.43299961;stroke-dasharray:none;stroke-dashoffset:0;stroke-opacity:1"
         inkscape:connector-curvature="0"
         d="m 1221.0775,190.0621 0,-0.285 -0.015,-0.285 -0.03,-0.27 -0.045,-0.27 -0.06,-0.27 -0.075,-0.255 -0.075,-0.255 -0.09,-0.255 -0.09,-0.24 -0.12,-0.225 -0.12,-0.24 -0.135,-0.21 -0.135,-0.225 -0.15,-0.195 -0.15,-0.195 -0.165,-0.195 -0.18,-0.18 -0.18,-0.165 -0.18,-0.165 -0.195,-0.15 -0.21,-0.15 -0.21,-0.12 -0.21,-0.12 -0.225,-0.105 -0.225,-0.105 -0.225,-0.09 -0.24,-0.06 -0.24,-0.06 -0.24,-0.06 -0.24,-0.03 -0.255,-0.015 -0.255,-0.015 0,0.375 c 1.305,0 3.435,1.05 3.435,4.875 0,3.945 -2.04,5.19 -3.42,5.19 l 0,0 c -1.425,0 -3.435,-1.305 -3.435,-5.19 0,-3.855 2.19,-4.875 3.42,-4.875 l 0,-0.375 c -2.67,0 -4.95,2.385 -4.95,5.46 0,3.045 2.295,5.37 4.95,5.37 2.715,0 4.965,-2.37 4.965,-5.37 z"
         id="path21627" />
      <path
         style="font-style:normal;font-variant:normal;font-weight:normal;font-stretch:normal;letter-spacing:normal;word-spacing:normal;text-anchor:start;fill:#000000;fill-opacity:1;stroke:#000000;stroke-width:0;stroke-linecap:butt;stroke-linejoin:miter;stroke-miterlimit:10.43299961;stroke-dasharray:none;stroke-dashoffset:0;stroke-opacity:1"
         inkscape:connector-curvature="0"
         d="m 1230.6325,191.6671 0,0.195 -0.015,0.195 -0.015,0.18 -0.03,0.18 -0.045,0.18 -0.03,0.165 -0.06,0.165 -0.045,0.15 -0.075,0.15 -0.06,0.15 -0.075,0.135 -0.075,0.135 -0.09,0.12 -0.09,0.12 -0.09,0.12 -0.105,0.105 -0.105,0.105 -0.105,0.09 -0.105,0.09 -0.12,0.09 -0.12,0.075 -0.12,0.075 -0.12,0.06 -0.12,0.06 -0.135,0.045 -0.12,0.045 -0.135,0.045 -0.135,0.03 -0.12,0.03 -0.135,0.015 -0.135,0 -0.135,0.015 c -0.705,0 -2.46,-0.375 -2.46,-3.21 l 0,-5.67 c 0,-0.54 0.03,-0.705 1.185,-0.705 l 0.345,0 0,-0.465 c -0.51,0.045 -1.62,0.045 -2.19,0.045 -0.57,0 -1.68,0 -2.205,-0.045 l 0,0.465 0.36,0 c 1.14,0 1.17,0.165 1.17,0.705 l 0,5.61 c 0,2.1 1.74,3.72 3.765,3.72 1.71,0 3.06,-1.38 3.315,-3.075 0.045,-0.3 0.045,-0.435 0.045,-1.035 l 0,-4.77 c 0,-0.48 0,-1.155 1.53,-1.155 l 0,-0.465 c -0.525,0.015 -1.245,0.045 -1.755,0.045 -0.525,0 -1.245,-0.03 -1.77,-0.045 l 0,0.465 c 1.53,0 1.53,0.705 1.53,1.095 z"
         id="path21629" />
      <path
         style="font-style:normal;font-variant:normal;font-weight:normal;font-stretch:normal;letter-spacing:normal;word-spacing:normal;text-anchor:start;fill:#000000;fill-opacity:1;stroke:#000000;stroke-width:0;stroke-linecap:butt;stroke-linejoin:miter;stroke-miterlimit:10.43299961;stroke-dasharray:none;stroke-dashoffset:0;stroke-opacity:1"
         inkscape:connector-curvature="0"
         d="m 1243.0975,185.0221 -9.12,0 -0.285,3.345 0.375,0 c 0.21,-2.385 0.435,-2.88 2.685,-2.88 0.27,0 0.66,0 0.81,0.03 0.315,0.06 0.315,0.225 0.315,0.57 l 0,7.845 c 0,0.51 0,0.72 -1.575,0.72 l -0.6,0 0,0.45 c 0.615,-0.03 2.145,-0.03 2.835,-0.03 0.675,0 2.22,0 2.835,0.03 l 0,-0.45 -0.6,0 c -1.575,0 -1.575,-0.21 -1.575,-0.72 l 0,-7.845 c 0,-0.3 0,-0.51 0.27,-0.57 0.165,-0.03 0.57,-0.03 0.855,-0.03 2.25,0 2.475,0.495 2.685,2.88 l 0.375,0 z"
         id="path21631" />
    </g>
    <ellipse
       ry="1.7349026"
       rx="1.7349195"
       style="fill:none;stroke:#00b000;stroke-width:0.99999994;stroke-linecap:round;stroke-linejoin:round;stroke-miterlimit:4;stroke-dasharray:none;stroke-opacity:1"
       id="path50984-163-86"
       transform="matrix(0.9997734,-0.02128711,0.02128753,0.99977339,0,0)"
       cx="411.19058"
       cy="246.2104" />
    <ellipse
       ry="1.7349026"
       rx="1.7349195"
       style="fill:none;stroke:#00b000;stroke-width:0.99999994;stroke-linecap:round;stroke-linejoin:round;stroke-miterlimit:4;stroke-dasharray:none;stroke-opacity:1"
       id="path50984-163-4"
       transform="matrix(0.9997734,-0.02128711,0.02128753,0.99977339,0,0)"
       cx="323.08047"
       cy="223.06972" />
    <ellipse
       ry="1.7349026"
       rx="1.7349195"
       style="fill:none;stroke:#ffb000;stroke-width:0.99999994;stroke-linecap:round;stroke-linejoin:round;stroke-miterlimit:4;stroke-dasharray:none;stroke-opacity:1"
       id="path50984-163-4-5"
       transform="matrix(0.9997734,-0.02128711,0.02128753,0.99977339,0,0)"
       cx="446.61563"
       cy="246.96468" />
    <ellipse
       ry="1.7349026"
       rx="1.7349195"
       style="fill:none;stroke:#ffb000;stroke-width:0.99999994;stroke-linecap:round;stroke-linejoin:round;stroke-miterlimit:4;stroke-dasharray:none;stroke-opacity:1"
       id="path50984-163-4-0"
       transform="matrix(0.9997734,-0.02128711,0.02128753,0.99977339,0,0)"
       cx="491.34793"
       cy="226.72438" />
    <path
       style="fill:none;stroke:#000000;stroke-width:1px;stroke-linecap:butt;stroke-linejoin:miter;stroke-opacity:1"
       d="m 359.64567,175.39369 0,7.08662"
       id="path16952-4"
       inkscape:connector-curvature="0" />
    <path
       style="fill:none;stroke:#000000;stroke-width:1px;stroke-linecap:butt;stroke-linejoin:miter;stroke-opacity:1"
       d="m 462.40147,175.39369 0,7.08662"
       id="path16952-8"
       inkscape:connector-curvature="0" />
    <path
       style="fill:none;stroke:#000000;stroke-width:1px;stroke-linecap:butt;stroke-linejoin:miter;stroke-opacity:1"
       d="m 407.48037,161.22047 -70.8662,0"
       id="path5633-9-7"
       inkscape:connector-curvature="0"
       sodipodi:nodetypes="cc" />
    <g
       id="g512-61-2"
       transform="matrix(1.25,-0.02661488,0.02661513,1.2499875,188.66387,131.34207)"
       style="stroke:#00b0ff;stroke-opacity:1">
      <path
         d="m 68.388,69.269 c -0.001,0.617 -0.496,1.115 -1.109,1.113 -0.613,-0.001 -1.111,-0.496 -1.109,-1.109 0.001,-0.617 0.496,-1.111 1.109,-1.109 0.613,-0.003 1.111,0.496 1.109,1.105 z"
         style="fill:none;stroke:#00b0ff;stroke-width:0.63985801;stroke-linecap:round;stroke-linejoin:round;stroke-miterlimit:4;stroke-dasharray:none;stroke-opacity:1"
         id="path514-82-1"
         inkscape:connector-curvature="0" />
    </g>
    <g
       id="g512-61-0"
       transform="matrix(1.25,-0.02661488,0.02661513,1.2499875,232.95527,131.34207)"
       style="stroke:#00b0ff;stroke-opacity:1">
      <path
         d="m 68.388,69.269 c -0.001,0.617 -0.496,1.115 -1.109,1.113 -0.613,-0.001 -1.111,-0.496 -1.109,-1.109 0.001,-0.617 0.496,-1.111 1.109,-1.109 0.613,-0.003 1.111,0.496 1.109,1.105 z"
         style="fill:none;stroke:#00b0ff;stroke-width:0.63985801;stroke-linecap:round;stroke-linejoin:round;stroke-miterlimit:4;stroke-dasharray:none;stroke-opacity:1"
         id="path514-82-2"
         inkscape:connector-curvature="0" />
    </g>
    <g
       id="g512-61-7"
       transform="matrix(1.25,-0.02661488,0.02661513,1.2499875,339.25447,152.60191)"
       style="stroke:#00b0ff;stroke-opacity:1">
      <path
         d="m 68.388,69.269 c -0.001,0.617 -0.496,1.115 -1.109,1.113 -0.613,-0.001 -1.111,-0.496 -1.109,-1.109 0.001,-0.617 0.496,-1.111 1.109,-1.109 0.613,-0.003 1.111,0.496 1.109,1.105 z"
         style="fill:none;stroke:#00b0ff;stroke-width:0.63985801;stroke-linecap:round;stroke-linejoin:round;stroke-miterlimit:4;stroke-dasharray:none;stroke-opacity:1"
         id="path514-82-3"
         inkscape:connector-curvature="0" />
    </g>
    <g
       id="g512-61-9"
       transform="matrix(1.25,-0.02661488,0.02661513,1.2499875,356.97097,152.60191)"
       style="stroke:#00b0ff;stroke-opacity:1">
      <path
         d="m 68.388,69.269 c -0.001,0.617 -0.496,1.115 -1.109,1.113 -0.613,-0.001 -1.111,-0.496 -1.109,-1.109 0.001,-0.617 0.496,-1.111 1.109,-1.109 0.613,-0.003 1.111,0.496 1.109,1.105 z"
         style="fill:none;stroke:#00b0ff;stroke-width:0.63985801;stroke-linecap:round;stroke-linejoin:round;stroke-miterlimit:4;stroke-dasharray:none;stroke-opacity:1"
         id="path514-82-24"
         inkscape:connector-curvature="0" />
    </g>
    <g
       id="g512-61-3"
       transform="matrix(1.25,-0.02661488,0.02661513,1.2499875,418.97887,131.34207)"
       style="stroke:#006400;stroke-opacity:1">
      <path
         d="m 68.388,69.269 c -0.001,0.617 -0.496,1.115 -1.109,1.113 -0.613,-0.001 -1.111,-0.496 -1.109,-1.109 0.001,-0.617 0.496,-1.111 1.109,-1.109 0.613,-0.003 1.111,0.496 1.109,1.105 z"
         style="fill:none;stroke:#00b0ff;stroke-width:0.63985801;stroke-linecap:round;stroke-linejoin:round;stroke-miterlimit:4;stroke-dasharray:none;stroke-opacity:1"
         id="path514-82-0"
         inkscape:connector-curvature="0" />
    </g>
    <g
       id="g512-61-24"
       transform="matrix(1.25,-0.02661488,0.02661513,1.2499875,436.69537,131.34207)"
       style="stroke:#006400;stroke-opacity:1">
      <path
         d="m 68.388,69.269 c -0.001,0.617 -0.496,1.115 -1.109,1.113 -0.613,-0.001 -1.111,-0.496 -1.109,-1.109 0.001,-0.617 0.496,-1.111 1.109,-1.109 0.613,-0.003 1.111,0.496 1.109,1.105 z"
         style="fill:none;stroke:#00b0ff;stroke-width:0.63985801;stroke-linecap:round;stroke-linejoin:round;stroke-miterlimit:4;stroke-dasharray:none;stroke-opacity:1"
         id="path514-82-38"
         inkscape:connector-curvature="0" />
    </g>
    <g
       id="g4861"
       transform="translate(-1032.4519,-229.73166)">
      <path
         id="path4591"
         d="m 1318.1547,459.6749 0,-0.11 -0.01,-0.11 -0.01,-0.11 -0.02,-0.1 -0.02,-0.11 -0.02,-0.1 -0.03,-0.1 -0.04,-0.1 -0.03,-0.1 -0.04,-0.09 -0.05,-0.09 -0.05,-0.09 -0.05,-0.09 -0.05,-0.08 -0.06,-0.08 -0.06,-0.07 -0.07,-0.08 -0.07,-0.06 -0.07,-0.07 -0.07,-0.06 -0.08,-0.06 -0.08,-0.05 -0.08,-0.05 -0.08,-0.04 -0.09,-0.04 -0.09,-0.04 -0.09,-0.03 -0.09,-0.02 -0.1,-0.02 -0.09,-0.02 -0.1,0 -0.1,-0.01 c -0.48,0 -0.91,0.16 -1.27,0.51 l 0,-1.94 c 0.2,0.06 0.53,0.13 0.85,0.13 1.23,0 1.92,-0.9 1.92,-1.03 0,-0.06 -0.03,-0.11 -0.1,-0.11 -0.01,0 -0.03,0 -0.08,0.03 -0.2,0.09 -0.68,0.29 -1.35,0.29 -0.4,0 -0.86,-0.07 -1.32,-0.28 -0.08,-0.03 -0.1,-0.03 -0.12,-0.03 -0.1,0 -0.1,0.08 -0.1,0.24 l 0,2.94 c 0,0.18 0,0.26 0.14,0.26 0.07,0 0.09,-0.03 0.13,-0.09 0.11,-0.16 0.47,-0.7 1.28,-0.7 0.52,0 0.77,0.46 0.85,0.64 0.15,0.36 0.17,0.75 0.17,1.25 0,0.35 0,0.94 -0.24,1.36 -0.23,0.39 -0.6,0.65 -1.06,0.65 -0.73,0 -1.29,-0.53 -1.46,-1.12 0.03,0.01 0.06,0.02 0.17,0.02 0.32,0 0.49,-0.25 0.49,-0.48 0,-0.24 -0.17,-0.49 -0.49,-0.49 -0.14,0 -0.49,0.07 -0.49,0.53 0,0.85 0.69,1.81 1.8,1.81 1.15,0 2.17,-0.95 2.17,-2.21 z"
         inkscape:connector-curvature="0"
         style="font-style:normal;font-variant:normal;font-weight:normal;font-stretch:normal;letter-spacing:normal;word-spacing:normal;text-anchor:start;fill:#000000;fill-opacity:1;fill-rule:evenodd;stroke:#000000;stroke-width:0;stroke-linecap:butt;stroke-linejoin:miter;stroke-miterlimit:10.43299961;stroke-dasharray:none;stroke-dashoffset:0;stroke-opacity:1" />
      <path
         id="path4593"
         d="m 1323.2447,458.4949 0,-0.15 0,-0.15 -0.01,-0.15 0,-0.15 -0.01,-0.15 -0.01,-0.14 -0.02,-0.15 -0.02,-0.15 -0.02,-0.14 -0.03,-0.15 -0.03,-0.14 -0.04,-0.15 -0.04,-0.14 -0.05,-0.14 -0.06,-0.14 -0.03,-0.07 -0.03,-0.07 c -0.46,-0.95 -1.27,-1.11 -1.69,-1.11 -0.6,0 -1.32,0.26 -1.73,1.18 -0.32,0.69 -0.37,1.46 -0.37,2.26 0,0.74 0.04,1.64 0.45,2.39 0.43,0.81 1.15,1 1.64,1 l 0,-0.22 c -0.39,0 -0.97,-0.24 -1.15,-1.2 -0.11,-0.59 -0.11,-1.51 -0.11,-2.09 0,-0.64 0,-1.29 0.08,-1.83 0.19,-1.18 0.93,-1.27 1.18,-1.27 0.33,0 0.99,0.18 1.18,1.16 0.09,0.56 0.09,1.31 0.09,1.94 0,0.74 0,1.42 -0.1,2.05 -0.15,0.95 -0.72,1.24 -1.17,1.24 l 0,0 0,0.22 c 0.54,0 1.29,-0.2 1.73,-1.15 0.32,-0.68 0.37,-1.46 0.37,-2.24 z"
         inkscape:connector-curvature="0"
         style="font-style:normal;font-variant:normal;font-weight:normal;font-stretch:normal;letter-spacing:normal;word-spacing:normal;text-anchor:start;fill:#000000;fill-opacity:1;fill-rule:evenodd;stroke:#000000;stroke-width:0;stroke-linecap:butt;stroke-linejoin:miter;stroke-miterlimit:10.43299961;stroke-dasharray:none;stroke-dashoffset:0;stroke-opacity:1" />
      <path
         id="path4595"
         d="m 1328.2247,458.4949 0,-0.15 0,-0.15 -0.01,-0.15 0,-0.15 -0.01,-0.15 -0.01,-0.14 -0.02,-0.15 -0.02,-0.15 -0.02,-0.14 -0.03,-0.15 -0.03,-0.14 -0.04,-0.15 -0.04,-0.14 -0.05,-0.14 -0.06,-0.14 -0.03,-0.07 -0.03,-0.07 c -0.45,-0.95 -1.27,-1.11 -1.69,-1.11 -0.59,0 -1.32,0.26 -1.73,1.18 -0.32,0.69 -0.37,1.46 -0.37,2.26 0,0.74 0.04,1.64 0.45,2.39 0.43,0.81 1.15,1 1.64,1 l 0,-0.22 c -0.39,0 -0.97,-0.24 -1.15,-1.2 -0.11,-0.59 -0.11,-1.51 -0.11,-2.09 0,-0.64 0,-1.29 0.08,-1.83 0.19,-1.18 0.93,-1.27 1.18,-1.27 0.33,0 0.99,0.18 1.18,1.16 0.1,0.56 0.1,1.31 0.1,1.94 0,0.74 0,1.42 -0.11,2.05 -0.15,0.95 -0.72,1.24 -1.17,1.24 l 0,0 0,0.22 c 0.54,0 1.3,-0.2 1.73,-1.15 0.32,-0.68 0.37,-1.46 0.37,-2.24 z"
         inkscape:connector-curvature="0"
         style="font-style:normal;font-variant:normal;font-weight:normal;font-stretch:normal;letter-spacing:normal;word-spacing:normal;text-anchor:start;fill:#000000;fill-opacity:1;fill-rule:evenodd;stroke:#000000;stroke-width:0;stroke-linecap:butt;stroke-linejoin:miter;stroke-miterlimit:10.43299961;stroke-dasharray:none;stroke-dashoffset:0;stroke-opacity:1" />
      <path
         id="path4597"
         d="m 1335.3647,460.0649 -0.25,0 c -0.05,0.25 -0.09,0.48 -0.18,0.72 -0.05,0.16 -0.08,0.24 -0.65,0.24 l -0.8,0 c 0.13,-0.56 0.44,-1.03 0.89,-1.69 0.46,-0.7 0.87,-1.39 0.87,-2.18 0,-1.38 -1.34,-2.49 -3.02,-2.49 -1.71,0 -3.04,1.13 -3.04,2.49 0,0.79 0.41,1.48 0.88,2.18 0.44,0.66 0.76,1.13 0.88,1.69 l -0.79,0 c -0.58,0 -0.61,-0.08 -0.66,-0.23 -0.08,-0.23 -0.13,-0.49 -0.18,-0.73 l -0.25,0 0.33,1.6 1.59,0 c 0.22,0 0.25,0 0.25,-0.2 0,-0.7 -0.31,-1.57 -0.53,-2.21 -0.21,-0.57 -0.49,-1.36 -0.49,-2.11 0,-1.58 1.09,-2.26 2,-2.26 0.95,0 2.01,0.71 2.01,2.26 0,0.75 -0.27,1.5 -0.56,2.32 -0.15,0.42 -0.47,1.31 -0.47,2 0,0.2 0.03,0.2 0.26,0.2 l 1.58,0 z"
         inkscape:connector-curvature="0"
         style="font-style:normal;font-variant:normal;font-weight:normal;font-stretch:normal;letter-spacing:normal;word-spacing:normal;text-anchor:start;fill:#000000;fill-opacity:1;fill-rule:evenodd;stroke:#000000;stroke-width:0;stroke-linecap:butt;stroke-linejoin:miter;stroke-miterlimit:10.43299961;stroke-dasharray:none;stroke-dashoffset:0;stroke-opacity:1" />
    </g>
    <g
       id="g4867"
       transform="translate(-910.21629,-324.43736)">
      <path
         id="path4599"
         d="m 1340.4047,460.9049 1.06,-1.02 c 1.55,-1.37 2.15,-1.91 2.15,-2.9 0,-1.14 -0.9,-1.93 -2.11,-1.93 -1.13,0 -1.86,0.91 -1.86,1.8 0,0.55 0.49,0.55 0.52,0.55 0.17,0 0.52,-0.12 0.52,-0.52 0,-0.26 -0.18,-0.52 -0.53,-0.52 -0.08,0 -0.1,0 -0.13,0.01 0.23,-0.65 0.77,-1.01 1.35,-1.01 0.9,0 1.33,0.8 1.33,1.62 0,0.79 -0.5,1.58 -1.04,2.19 l -1.92,2.13 c -0.1,0.11 -0.1,0.13 -0.1,0.36 l 3.69,0 0.28,-1.72 -0.25,0 c -0.05,0.3 -0.12,0.73 -0.22,0.88 -0.07,0.08 -0.73,0.08 -0.95,0.08 z"
         inkscape:connector-curvature="0"
         style="font-style:normal;font-variant:normal;font-weight:normal;font-stretch:normal;letter-spacing:normal;word-spacing:normal;text-anchor:start;fill:#000000;fill-opacity:1;fill-rule:evenodd;stroke:#000000;stroke-width:0;stroke-linecap:butt;stroke-linejoin:miter;stroke-miterlimit:10.43299961;stroke-dasharray:none;stroke-dashoffset:0;stroke-opacity:1" />
      <path
         id="path4601"
         d="m 1348.7047,458.4949 0,-0.15 -0.01,-0.15 0,-0.15 -0.01,-0.15 -0.01,-0.15 -0.01,-0.14 -0.01,-0.15 -0.02,-0.15 -0.03,-0.14 -0.02,-0.15 -0.04,-0.14 -0.03,-0.15 -0.05,-0.14 -0.04,-0.14 -0.06,-0.14 -0.03,-0.07 -0.03,-0.07 c -0.46,-0.95 -1.28,-1.11 -1.69,-1.11 -0.6,0 -1.33,0.26 -1.73,1.18 -0.32,0.69 -0.37,1.46 -0.37,2.26 0,0.74 0.04,1.64 0.45,2.39 0.42,0.81 1.15,1 1.64,1 l 0,-0.22 c -0.39,0 -0.98,-0.24 -1.16,-1.2 -0.11,-0.59 -0.11,-1.51 -0.11,-2.09 0,-0.64 0,-1.29 0.08,-1.83 0.19,-1.18 0.94,-1.27 1.19,-1.27 0.33,0 0.98,0.18 1.17,1.16 0.1,0.56 0.1,1.31 0.1,1.94 0,0.74 0,1.42 -0.11,2.05 -0.15,0.95 -0.72,1.24 -1.16,1.24 l 0,0 0,0.22 c 0.53,0 1.29,-0.2 1.73,-1.15 0.32,-0.68 0.37,-1.46 0.37,-2.24 z"
         inkscape:connector-curvature="0"
         style="font-style:normal;font-variant:normal;font-weight:normal;font-stretch:normal;letter-spacing:normal;word-spacing:normal;text-anchor:start;fill:#000000;fill-opacity:1;fill-rule:evenodd;stroke:#000000;stroke-width:0;stroke-linecap:butt;stroke-linejoin:miter;stroke-miterlimit:10.43299961;stroke-dasharray:none;stroke-dashoffset:0;stroke-opacity:1" />
      <path
         id="path4603"
         d="m 1353.6847,458.4949 0,-0.15 0,-0.15 -0.01,-0.15 -0.01,-0.15 0,-0.15 -0.02,-0.14 -0.01,-0.15 -0.02,-0.15 -0.02,-0.14 -0.03,-0.15 -0.03,-0.14 -0.04,-0.15 -0.04,-0.14 -0.05,-0.14 -0.06,-0.14 -0.03,-0.07 -0.03,-0.07 c -0.46,-0.95 -1.27,-1.11 -1.69,-1.11 -0.6,0 -1.33,0.26 -1.73,1.18 -0.32,0.69 -0.37,1.46 -0.37,2.26 0,0.74 0.04,1.64 0.45,2.39 0.43,0.81 1.15,1 1.64,1 l 0,-0.22 c -0.39,0 -0.98,-0.24 -1.16,-1.2 -0.1,-0.59 -0.1,-1.51 -0.1,-2.09 0,-0.64 0,-1.29 0.07,-1.83 0.19,-1.18 0.94,-1.27 1.19,-1.27 0.33,0 0.98,0.18 1.17,1.16 0.1,0.56 0.1,1.31 0.1,1.94 0,0.74 0,1.42 -0.11,2.05 -0.15,0.95 -0.71,1.24 -1.16,1.24 l 0,0 0,0.22 c 0.54,0 1.29,-0.2 1.73,-1.15 0.32,-0.68 0.37,-1.46 0.37,-2.24 z"
         inkscape:connector-curvature="0"
         style="font-style:normal;font-variant:normal;font-weight:normal;font-stretch:normal;letter-spacing:normal;word-spacing:normal;text-anchor:start;fill:#000000;fill-opacity:1;fill-rule:evenodd;stroke:#000000;stroke-width:0;stroke-linecap:butt;stroke-linejoin:miter;stroke-miterlimit:10.43299961;stroke-dasharray:none;stroke-dashoffset:0;stroke-opacity:1" />
      <path
         id="path4605"
         d="m 1358.6647,458.4949 0,-0.15 0,-0.15 -0.01,-0.15 0,-0.15 -0.01,-0.15 -0.02,-0.14 -0.01,-0.15 -0.02,-0.15 -0.02,-0.14 -0.03,-0.15 -0.03,-0.14 -0.04,-0.15 -0.04,-0.14 -0.05,-0.14 -0.06,-0.14 -0.03,-0.07 -0.03,-0.07 c -0.46,-0.95 -1.27,-1.11 -1.69,-1.11 -0.6,0 -1.32,0.26 -1.73,1.18 -0.32,0.69 -0.37,1.46 -0.37,2.26 0,0.74 0.04,1.64 0.45,2.39 0.43,0.81 1.15,1 1.64,1 l 0,-0.22 c -0.39,0 -0.97,-0.24 -1.15,-1.2 -0.11,-0.59 -0.11,-1.51 -0.11,-2.09 0,-0.64 0,-1.29 0.08,-1.83 0.19,-1.18 0.93,-1.27 1.18,-1.27 0.33,0 0.98,0.18 1.17,1.16 0.1,0.56 0.1,1.31 0.1,1.94 0,0.74 0,1.42 -0.11,2.05 -0.15,0.95 -0.71,1.24 -1.16,1.24 l 0,0 0,0.22 c 0.54,0 1.29,-0.2 1.73,-1.15 0.32,-0.68 0.37,-1.46 0.37,-2.24 z"
         inkscape:connector-curvature="0"
         style="font-style:normal;font-variant:normal;font-weight:normal;font-stretch:normal;letter-spacing:normal;word-spacing:normal;text-anchor:start;fill:#000000;fill-opacity:1;fill-rule:evenodd;stroke:#000000;stroke-width:0;stroke-linecap:butt;stroke-linejoin:miter;stroke-miterlimit:10.43299961;stroke-dasharray:none;stroke-dashoffset:0;stroke-opacity:1" />
      <path
         id="path4607"
         d="m 1365.8047,460.0649 -0.25,0 c -0.05,0.25 -0.09,0.48 -0.18,0.72 -0.05,0.16 -0.08,0.24 -0.66,0.24 l -0.79,0 c 0.13,-0.56 0.44,-1.03 0.88,-1.69 0.47,-0.7 0.88,-1.39 0.88,-2.18 0,-1.38 -1.34,-2.49 -3.03,-2.49 -1.71,0 -3.03,1.13 -3.03,2.49 0,0.79 0.41,1.48 0.88,2.18 0.43,0.66 0.75,1.13 0.88,1.69 l -0.79,0 c -0.58,0 -0.61,-0.08 -0.66,-0.23 -0.08,-0.23 -0.13,-0.49 -0.18,-0.73 l -0.25,0 0.33,1.6 1.59,0 c 0.22,0 0.25,0 0.25,-0.2 0,-0.7 -0.31,-1.57 -0.54,-2.21 -0.21,-0.57 -0.48,-1.36 -0.48,-2.11 0,-1.58 1.09,-2.26 2,-2.26 0.95,0 2,0.71 2,2.26 0,0.75 -0.26,1.5 -0.55,2.32 -0.15,0.42 -0.47,1.31 -0.47,2 0,0.2 0.03,0.2 0.26,0.2 l 1.58,0 z"
         inkscape:connector-curvature="0"
         style="font-style:normal;font-variant:normal;font-weight:normal;font-stretch:normal;letter-spacing:normal;word-spacing:normal;text-anchor:start;fill:#000000;fill-opacity:1;fill-rule:evenodd;stroke:#000000;stroke-width:0;stroke-linecap:butt;stroke-linejoin:miter;stroke-miterlimit:10.43299961;stroke-dasharray:none;stroke-dashoffset:0;stroke-opacity:1" />
    </g>
    <g
       id="g4874"
       transform="translate(-818.97381,-233.12165)">
      <path
         id="path4609"
         d="m 1372.5147,455.3149 0,-0.01 0,-0.01 0,-0.02 0,-0.01 0,0 0,-0.01 0,-0.01 0,-0.01 0,-0.01 0,-0.01 0,-0.01 0,-0.01 0,0 0,-0.01 0,-0.01 0,0 0,-0.01 0,-0.01 -0.01,-0.01 0,-0.01 0,-0.01 0,-0.01 -0.01,-0.01 0,0 -0.01,-0.01 0,-0.01 -0.01,0 -0.01,-0.01 0,0 -0.01,-0.01 -0.01,0 0,0 -0.01,0 0,0 -0.01,0 -0.01,0 0,-0.01 -0.01,0 0,0 -0.01,0 -0.01,0 -0.01,0 0,0 -0.01,0 -0.01,0 -0.01,0 -0.01,0 -0.01,0 -0.01,0 -0.01,0 -0.01,0 -0.01,0 c -0.61,0.64 -1.49,0.64 -1.81,0.64 l 0,0.3 c 0.2,0 0.79,0 1.3,-0.25 l 0,5.14 c 0,0.36 -0.03,0.48 -0.92,0.48 l -0.32,0 0,0.3 c 0.35,-0.03 1.21,-0.03 1.61,-0.03 0.4,0 1.27,0 1.62,0.03 l 0,-0.3 -0.32,0 c -0.9,0 -0.93,-0.11 -0.93,-0.48 z"
         inkscape:connector-curvature="0"
         style="font-style:normal;font-variant:normal;font-weight:normal;font-stretch:normal;letter-spacing:normal;word-spacing:normal;text-anchor:start;fill:#000000;fill-opacity:1;fill-rule:evenodd;stroke:#000000;stroke-width:0;stroke-linecap:butt;stroke-linejoin:miter;stroke-miterlimit:10.43299961;stroke-dasharray:none;stroke-dashoffset:0;stroke-opacity:1" />
      <path
         id="path4611"
         d="m 1379.1447,458.4949 0,-0.15 0,-0.15 0,-0.15 -0.01,-0.15 -0.01,-0.15 -0.01,-0.14 -0.02,-0.15 -0.01,-0.15 -0.03,-0.14 -0.03,-0.15 -0.03,-0.14 -0.04,-0.15 -0.04,-0.14 -0.05,-0.14 -0.05,-0.14 -0.03,-0.07 -0.03,-0.07 c -0.46,-0.95 -1.28,-1.11 -1.69,-1.11 -0.6,0 -1.33,0.26 -1.74,1.18 -0.31,0.69 -0.36,1.46 -0.36,2.26 0,0.74 0.03,1.64 0.44,2.39 0.43,0.81 1.16,1 1.64,1 l 0,-0.22 c -0.38,0 -0.97,-0.24 -1.15,-1.2 -0.11,-0.59 -0.11,-1.51 -0.11,-2.09 0,-0.64 0,-1.29 0.08,-1.83 0.19,-1.18 0.94,-1.27 1.18,-1.27 0.33,0 0.99,0.18 1.18,1.16 0.1,0.56 0.1,1.31 0.1,1.94 0,0.74 0,1.42 -0.11,2.05 -0.15,0.95 -0.72,1.24 -1.17,1.24 l 0,0 0,0.22 c 0.54,0 1.3,-0.2 1.74,-1.15 0.31,-0.68 0.36,-1.46 0.36,-2.24 z"
         inkscape:connector-curvature="0"
         style="font-style:normal;font-variant:normal;font-weight:normal;font-stretch:normal;letter-spacing:normal;word-spacing:normal;text-anchor:start;fill:#000000;fill-opacity:1;fill-rule:evenodd;stroke:#000000;stroke-width:0;stroke-linecap:butt;stroke-linejoin:miter;stroke-miterlimit:10.43299961;stroke-dasharray:none;stroke-dashoffset:0;stroke-opacity:1" />
      <path
         id="path4613"
         d="m 1381.2647,457.9349 0,-0.66 -1.43,0.11 0,0.31 c 0.7,0 0.77,0.06 0.77,0.5 l 0,4.65 c 0,0.44 -0.11,0.44 -0.77,0.44 l 0,0.31 c 0.34,-0.01 0.85,-0.03 1.11,-0.03 0.27,0 0.78,0.02 1.13,0.03 l 0,-0.31 c -0.67,0 -0.78,0 -0.78,-0.44 l 0,-1.67 0,-0.09 0.14,-0.13 c -0.14,-0.21 -0.14,-0.22 -0.14,-0.42 l 0,0 0,-2.21 c 0.29,-0.51 0.78,-0.8 1.28,-0.8 0.73,0 1.34,0.88 1.34,2 0,1.2 -0.7,2.04 -1.44,2.04 -0.39,0 -0.77,-0.2 -1.04,-0.61 l -0.14,0.13 c 0.05,0.16 0.47,0.69 1.22,0.69 1.19,0 2.22,-0.97 2.22,-2.25 0,-1.26 -0.96,-2.25 -2.08,-2.25 -0.77,0 -1.19,0.44 -1.39,0.66 z"
         inkscape:connector-curvature="0"
         style="font-style:normal;font-variant:normal;font-weight:normal;font-stretch:normal;letter-spacing:normal;word-spacing:normal;text-anchor:start;fill:#000000;fill-opacity:1;fill-rule:evenodd;stroke:#000000;stroke-width:0;stroke-linecap:butt;stroke-linejoin:miter;stroke-miterlimit:10.43299961;stroke-dasharray:none;stroke-dashoffset:0;stroke-opacity:1" />
      <path
         id="path4615"
         d="m 1390.8747,454.9149 -5.46,0 0,0.31 0.24,0 c 0.77,0 0.79,0.11 0.79,0.47 l 0,5.2 c 0,0.36 -0.02,0.47 -0.79,0.47 l -0.24,0 0,0.3 c 0.35,-0.03 1.13,-0.03 1.51,-0.03 0.41,0 1.32,0 1.68,0.03 l 0,-0.3 -0.33,0 c -0.95,0 -0.95,-0.13 -0.95,-0.48 l 0,-2.44 0.86,0 c 0.95,0 1.05,0.31 1.05,1.16 l 0.25,0 0,-2.63 -0.25,0 c 0,0.83 -0.1,1.16 -1.05,1.16 l -0.86,0 0,-2.51 c 0,-0.33 0.02,-0.4 0.49,-0.4 l 1.19,0 c 1.5,0 1.74,0.55 1.9,1.92 l 0.25,0 z"
         inkscape:connector-curvature="0"
         style="font-style:normal;font-variant:normal;font-weight:normal;font-stretch:normal;letter-spacing:normal;word-spacing:normal;text-anchor:start;fill:#000000;fill-opacity:1;fill-rule:evenodd;stroke:#000000;stroke-width:0;stroke-linecap:butt;stroke-linejoin:miter;stroke-miterlimit:10.43299961;stroke-dasharray:none;stroke-dashoffset:0;stroke-opacity:1" />
    </g>
    <g
       transform="translate(-30.118134,-106.29923)"
       id="g4741"
       style="stroke:#00b0ff;stroke-opacity:1">
      <rect
         y="325.98419"
         x="301.18106"
         height="8.858284"
         width="7.0866709"
         id="rect4882"
         style="fill:#ffffff;fill-opacity:1;stroke:#00b0ff;stroke-width:1;stroke-miterlimit:4;stroke-dasharray:none;stroke-dashoffset:0;stroke-opacity:1" />
      <path
         id="path4617"
         d="m 305.1244,327.36833 0,-0.01 0,-0.01 0,-0.02 0,-0.01 0,0 0,-0.01 0,-0.01 0,-0.01 0,-0.01 0,-0.01 0,-0.01 0,-0.01 0,0 0,-0.01 0,-0.01 0,0 0,-0.01 -0.01,-0.01 0,-0.01 0,-0.01 0,-0.01 -0.01,-0.01 0,-0.01 0,0 -0.01,-0.01 0,-0.01 -0.01,0 -0.01,-0.01 -0.01,0 0,-0.01 -0.01,0 0,0 -0.01,0 -0.01,0 0,0 -0.01,0 0,-0.01 -0.01,0 -0.01,0 0,0 -0.01,0 -0.01,0 -0.01,0 0,0 -0.01,0 -0.01,0 -0.01,0 -0.01,0 -0.01,0 -0.01,0 -0.01,0 -0.01,0 c -0.62,0.64 -1.49,0.64 -1.81,0.64 l 0,0.3 c 0.2,0 0.79,0 1.3,-0.25 l 0,5.14 c 0,0.36 -0.03,0.48 -0.92,0.48 l -0.32,0 0,0.3 c 0.35,-0.03 1.21,-0.03 1.61,-0.03 0.4,0 1.27,0 1.61,0.03 l 0,-0.3 -0.31,0 c -0.9,0 -0.93,-0.11 -0.93,-0.48 z"
         inkscape:connector-curvature="0"
         style="font-style:normal;font-variant:normal;font-weight:normal;font-stretch:normal;letter-spacing:normal;word-spacing:normal;text-anchor:start;fill:#00b0ff;fill-opacity:1;fill-rule:evenodd;stroke:#00b0ff;stroke-width:0;stroke-linecap:butt;stroke-linejoin:miter;stroke-miterlimit:10.43299961;stroke-dasharray:none;stroke-dashoffset:0;stroke-opacity:1" />
    </g>
    <g
       transform="translate(32.289694,-114.56666)"
       id="g4745"
       style="stroke:#00b0ff;stroke-opacity:1">
      <rect
         y="334.25162"
         x="283.06458"
         height="8.858285"
         width="7.0866718"
         id="rect4882-61"
         style="fill:#ffffff;fill-opacity:1;stroke:#00b0ff;stroke-width:1;stroke-miterlimit:4;stroke-dasharray:none;stroke-dashoffset:0;stroke-opacity:1" />
      <g
         transform="translate(-1056.2146,-58.577818)"
         id="g4917"
         style="stroke:#00b0ff;stroke-opacity:1">
        <path
           style="font-style:normal;font-variant:normal;font-weight:normal;font-stretch:normal;letter-spacing:normal;word-spacing:normal;text-anchor:start;fill:#00b0ff;fill-opacity:1;fill-rule:evenodd;stroke:#00b0ff;stroke-width:0;stroke-linecap:butt;stroke-linejoin:miter;stroke-miterlimit:10.43299961;stroke-dasharray:none;stroke-dashoffset:0;stroke-opacity:1"
           inkscape:connector-curvature="0"
           d="m 1343.2225,396.96358 0.08,-0.03 0.07,-0.03 0.08,-0.03 0.07,-0.03 0.07,-0.04 0.06,-0.04 0.07,-0.04 0.06,-0.04 0.07,-0.04 0.06,-0.05 0.06,-0.05 0.05,-0.05 0.06,-0.05 0.05,-0.05 0.05,-0.06 0.05,-0.05 0.04,-0.06 0.04,-0.06 0.04,-0.06 0.04,-0.06 0.04,-0.07 0.03,-0.06 0.03,-0.07 0.02,-0.06 0.03,-0.07 0.02,-0.07 0.02,-0.07 0.01,-0.07 0.01,-0.07 0.01,-0.07 0,-0.08 0.01,-0.07 c 0,-0.81 -0.88,-1.37 -1.83,-1.37 -1.01,0 -1.77,0.59 -1.77,1.35 0,0.33 0.22,0.52 0.51,0.52 0.31,0 0.51,-0.22 0.51,-0.51 0,-0.5 -0.47,-0.5 -0.62,-0.5 0.31,-0.48 0.97,-0.61 1.32,-0.61 0.41,0 0.96,0.22 0.96,1.11 0,0.12 -0.02,0.7 -0.28,1.13 -0.3,0.48 -0.63,0.51 -0.88,0.52 -0.08,0.01 -0.32,0.03 -0.39,0.03 -0.08,0.01 -0.15,0.02 -0.15,0.12 0,0.11 0.07,0.11 0.24,0.11 l 0.44,0 c 0.81,0 1.18,0.67 1.18,1.65 0,1.35 -0.69,1.64 -1.13,1.64 -0.42,0 -1.17,-0.17 -1.52,-0.76 0.35,0.05 0.66,-0.17 0.66,-0.55 0,-0.35 -0.27,-0.55 -0.56,-0.55 -0.24,0 -0.55,0.14 -0.55,0.57 0,0.91 0.92,1.56 2,1.56 1.22,0 2.12,-0.9 2.12,-1.91 0,-0.82 -0.62,-1.59 -1.66,-1.8 z"
           id="path4621" />
      </g>
    </g>
    <g
       transform="translate(207.0368,-113.57832)"
       id="g4737">
      <rect
         y="333.26328"
         x="312.05765"
         height="8.8582859"
         width="7.0866728"
         id="rect4882-61-8"
         style="fill:#ffffff;fill-opacity:1;stroke:#00b0ff;stroke-width:1;stroke-miterlimit:4;stroke-dasharray:none;stroke-dashoffset:0;stroke-opacity:1" />
      <path
         id="path4619"
         d="m 314.38598,340.23741 1.05,-1.01999 c 1.56,-1.37001 2.15,-1.91001 2.15,-2.9 0,-1.14 -0.89,-1.93 -2.11,-1.93 -1.12,0 -1.86,0.91 -1.86,1.8 0,0.55 0.5,0.55 0.53,0.55 0.17,0 0.52,-0.12 0.52,-0.52 0,-0.26 -0.18,-0.52 -0.53,-0.52 -0.08,0 -0.1,0 -0.13,0.01 0.23,-0.65 0.77,-1.01 1.35,-1.01 0.9,0 1.33,0.8 1.33,1.62 0,0.79 -0.5,1.58 -1.05,2.19 l -1.91,2.13 c -0.11,0.11 -0.11,0.13 -0.11,0.36 l 3.69,0 0.28,-1.72 -0.25,0 c -0.04,0.3 -0.12,0.73 -0.21,0.88 -0.07,0.08 -0.73,0.08 -0.95,0.08 z"
         inkscape:connector-curvature="0"
         style="font-style:normal;font-variant:normal;font-weight:normal;font-stretch:normal;letter-spacing:normal;word-spacing:normal;text-anchor:start;fill:#00b0ff;fill-opacity:1;fill-rule:evenodd;stroke:#000000;stroke-width:0;stroke-linecap:butt;stroke-linejoin:miter;stroke-miterlimit:10.43299961;stroke-dasharray:none;stroke-dashoffset:0;stroke-opacity:1" />
    </g>
    <g
       transform="translate(95.669268,-93.011801)"
       id="g4733"
       style="stroke:#00b0ff;stroke-opacity:1">
      <rect
         y="333.9566"
         x="325.98422"
         height="8.8582859"
         width="7.0866728"
         id="rect4882-61-3"
         style="fill:#ffffff;fill-opacity:1;stroke:#00b0ff;stroke-width:1;stroke-miterlimit:4;stroke-dasharray:none;stroke-dashoffset:0;stroke-opacity:1" />
      <path
         id="path4623"
         d="m 329.96256,340.11576 0,0.86 c 0,0.36 -0.02,0.47 -0.75,0.47 l -0.21,0 0,0.3 c 0.41,-0.03 0.92,-0.03 1.34,-0.03 0.42,0 0.95,0 1.36,0.03 l 0,-0.3 -0.21,0 c -0.74,0 -0.76,-0.11 -0.76,-0.47 l 0,-0.86 1,0 0,-0.31 -1,0 0,-4.52 c 0,-0.2 0,-0.26 -0.16,-0.26 -0.09,0 -0.12,0 -0.2,0.12 l -3.05,4.66 0.28,0 2.42,-3.71 0,3.71 -2.42,0 -0.28,0 0,0.31 z"
         inkscape:connector-curvature="0"
         style="font-style:normal;font-variant:normal;font-weight:normal;font-stretch:normal;letter-spacing:normal;word-spacing:normal;text-anchor:start;fill:#00b0ff;fill-opacity:1;fill-rule:evenodd;stroke:#00b0ff;stroke-width:0;stroke-linecap:butt;stroke-linejoin:miter;stroke-miterlimit:10.43299961;stroke-dasharray:none;stroke-dashoffset:0;stroke-opacity:1" />
    </g>
    <g
       transform="translate(103.35254,-95.4168)"
       id="g4729"
       style="stroke:#00b0ff;stroke-opacity:1">
      <rect
         y="336.3616"
         x="336.01749"
         height="8.8582859"
         width="7.0866728"
         id="rect4882-61-81"
         style="fill:#ffffff;fill-opacity:1;stroke:#00b0ff;stroke-width:1;stroke-miterlimit:4;stroke-dasharray:none;stroke-dashoffset:0;stroke-opacity:1" />
      <path
         id="path4625"
         d="m 341.54582,341.99576 -0.01,-0.11 0,-0.11 -0.01,-0.11 -0.02,-0.1 -0.02,-0.11 -0.03,-0.1 -0.02,-0.1 -0.04,-0.1 -0.03,-0.1 -0.05,-0.09 -0.04,-0.09 -0.05,-0.09 -0.05,-0.09 -0.05,-0.08 -0.06,-0.08 -0.07,-0.07 -0.06,-0.08 -0.07,-0.06 -0.07,-0.07 -0.07,-0.06 -0.08,-0.06 -0.08,-0.05 -0.08,-0.05 -0.08,-0.04 -0.09,-0.04 -0.09,-0.04 -0.09,-0.03 -0.09,-0.02 -0.1,-0.02 -0.09,-0.02 -0.1,0 -0.1,-0.01 c -0.48,0 -0.91,0.16 -1.27,0.51 l 0,-1.94 c 0.2,0.06 0.53,0.13 0.85,0.13 1.22,0 1.92,-0.9 1.92,-1.03 0,-0.06 -0.03,-0.11 -0.1,-0.11 -0.01,0 -0.03,0 -0.08,0.03 -0.2,0.09 -0.69,0.29 -1.35,0.29 -0.4,0 -0.86,-0.07 -1.33,-0.28 -0.08,-0.03 -0.1,-0.03 -0.12,-0.03 -0.09,0 -0.09,0.08 -0.09,0.24 l 0,2.94 c 0,0.18 0,0.26 0.13,0.26 0.07,0 0.09,-0.03 0.13,-0.09 0.11,-0.16 0.48,-0.7 1.29,-0.7 0.51,0 0.76,0.46 0.84,0.64 0.16,0.36 0.18,0.75 0.18,1.25 0,0.35 0,0.94 -0.24,1.36 -0.24,0.39 -0.6,0.65 -1.06,0.65 -0.73,0 -1.29,-0.53 -1.46,-1.12 0.03,0.01 0.06,0.02 0.17,0.02 0.32,0 0.49,-0.25 0.49,-0.48 0,-0.24 -0.17,-0.49 -0.49,-0.49 -0.14,0 -0.49,0.07 -0.49,0.53 0,0.85 0.68,1.81 1.8,1.81 1.15,0 2.17,-0.95 2.17,-2.21 z"
         inkscape:connector-curvature="0"
         style="font-style:normal;font-variant:normal;font-weight:normal;font-stretch:normal;letter-spacing:normal;word-spacing:normal;text-anchor:start;fill:#00b0ff;fill-opacity:1;fill-rule:evenodd;stroke:#00b0ff;stroke-width:0;stroke-linecap:butt;stroke-linejoin:miter;stroke-miterlimit:10.43299961;stroke-dasharray:none;stroke-dashoffset:0;stroke-opacity:1" />
    </g>
    <g
       transform="translate(138.18897,-116.04331)"
       id="g4725">
      <rect
         y="335.72827"
         x="363.18893"
         height="8.8582869"
         width="7.0866737"
         id="rect4882-61-81-7"
         style="fill:#ffffff;fill-opacity:1;stroke:#00b0ff;stroke-width:1;stroke-miterlimit:4;stroke-dasharray:none;stroke-dashoffset:0;stroke-opacity:1" />
      <path
         id="path4627"
         d="m 365.55728,340.10242 0,-0.24 c 0,-2.52 1.24,-2.87 1.75,-2.87 0.24,0 0.65,0.06 0.87,0.4 -0.15,0 -0.55,0 -0.55,0.44 0,0.31 0.24,0.46 0.46,0.46 0.16,0 0.46,-0.09 0.46,-0.48 0,-0.59 -0.44,-1.07 -1.26,-1.07 -1.28,0 -2.62,1.28 -2.62,3.48 0,2.65 1.15,3.35 2.08,3.35 1.1,0 2.05,-0.93 2.05,-2.24 0,-1.26 -0.89,-2.22 -1.99,-2.22 l -0.01,0.23 c 0.16,0 0.62,0 0.92,0.62 0.18,0.36 0.18,0.87 0.18,1.36 0,0.48 0,0.97 -0.17,1.33 -0.3,0.6 -0.75,0.65 -0.98,0.65 l 0,0 c -0.63,0 -0.93,-0.6 -0.99,-0.75 -0.18,-0.47 -0.18,-1.26 -0.18,-1.44 0,-0.78 0.32,-1.77 1.22,-1.77 l 0.01,-0.23 c -0.68,0 -1.05,0.51 -1.25,0.99 z"
         inkscape:connector-curvature="0"
         style="font-style:normal;font-variant:normal;font-weight:normal;font-stretch:normal;letter-spacing:normal;word-spacing:normal;text-anchor:start;fill:#00b0ff;fill-opacity:1;fill-rule:evenodd;stroke:#000000;stroke-width:0;stroke-linecap:butt;stroke-linejoin:miter;stroke-miterlimit:10.43299961;stroke-dasharray:none;stroke-dashoffset:0;stroke-opacity:1" />
    </g>
    <g
       transform="translate(61.876214,-84.691855)"
       id="g4785"
       style="stroke:#ffb000;stroke-opacity:1">
      <rect
         style="fill:#ffffff;fill-opacity:1;stroke:#ffb000;stroke-width:1;stroke-miterlimit:4;stroke-dasharray:none;stroke-dashoffset:0;stroke-opacity:1"
         id="rect4882-61-8-3"
         width="7.0866737"
         height="8.8582869"
         x="386.35208"
         y="325.63666" />
      <path
         id="path4617-0"
         d="m 390.29543,327.0208 0,-0.01 0,-0.01 0,-0.02 0,-0.01 0,0 0,-0.01 0,-0.01 0,-0.01 0,-0.01 0,-0.01 0,-0.01 0,-0.01 0,0 0,-0.01 0,-0.01 0,0 0,-0.01 -0.01,-0.01 0,-0.01 0,-0.01 0,-0.01 -0.01,-0.01 0,-0.01 0,0 -0.01,-0.01 0,-0.01 -0.01,0 -0.01,-0.01 -0.01,0 0,-0.01 -0.01,0 0,0 -0.01,0 -0.01,0 0,0 -0.01,0 0,-0.01 -0.01,0 -0.01,0 0,0 -0.01,0 -0.01,0 -0.01,0 0,0 -0.01,0 -0.01,0 -0.01,0 -0.01,0 -0.01,0 -0.01,0 -0.01,0 -0.01,0 c -0.62,0.64 -1.49,0.64 -1.81,0.64 l 0,0.3 c 0.2,0 0.79,0 1.3,-0.25 l 0,5.14 c 0,0.36 -0.03,0.48 -0.92,0.48 l -0.32,0 0,0.3 c 0.35,-0.03 1.21,-0.03 1.61,-0.03 0.4,0 1.27,0 1.61,0.03 l 0,-0.3 -0.31,0 c -0.9,0 -0.93,-0.11 -0.93,-0.48 z"
         inkscape:connector-curvature="0"
         style="font-style:normal;font-variant:normal;font-weight:normal;font-stretch:normal;letter-spacing:normal;word-spacing:normal;text-anchor:start;fill:#ffb000;fill-opacity:1;fill-rule:evenodd;stroke:#ffb000;stroke-width:0;stroke-linecap:butt;stroke-linejoin:miter;stroke-miterlimit:10.43299961;stroke-dasharray:none;stroke-dashoffset:0;stroke-opacity:1" />
    </g>
    <g
       transform="translate(97.440933,-107.18504)"
       id="g4789"
       style="stroke:#ffb000;stroke-opacity:1">
      <rect
         style="fill:#ffffff;fill-opacity:1;stroke:#ffb000;stroke-width:1;stroke-miterlimit:4;stroke-dasharray:none;stroke-dashoffset:0;stroke-opacity:1"
         id="rect4882-61-8-3-6"
         width="7.0866747"
         height="8.8582878"
         x="395.0787"
         y="326.87" />
      <path
         id="path4619-2"
         d="m 397.40705,333.84415 1.05,-1.02 c 1.56,-1.37 2.15,-1.91 2.15,-2.9 0,-1.14 -0.89,-1.93 -2.11,-1.93 -1.12,0 -1.86,0.91 -1.86,1.8 0,0.55 0.5,0.55 0.53,0.55 0.17,0 0.52,-0.12 0.52,-0.52 0,-0.26 -0.18,-0.52 -0.53,-0.52 -0.08,0 -0.1,0 -0.13,0.01 0.23,-0.65 0.77,-1.01 1.35,-1.01 0.9,0 1.33,0.8 1.33,1.62 0,0.79 -0.5,1.58 -1.05,2.19 l -1.91,2.13 c -0.11,0.11 -0.11,0.13 -0.11,0.36 l 3.69,0 0.28,-1.72 -0.25,0 c -0.04,0.3 -0.12,0.73 -0.21,0.88 -0.07,0.08 -0.73,0.08 -0.95,0.08 z"
         inkscape:connector-curvature="0"
         style="font-style:normal;font-variant:normal;font-weight:normal;font-stretch:normal;letter-spacing:normal;word-spacing:normal;text-anchor:start;fill:#ffb000;fill-opacity:1;fill-rule:evenodd;stroke:#ffb000;stroke-width:0;stroke-linecap:butt;stroke-linejoin:miter;stroke-miterlimit:10.43299961;stroke-dasharray:none;stroke-dashoffset:0;stroke-opacity:1" />
    </g>
    <g
       transform="translate(-67.322863,-105.4134)"
       id="g4821"
       style="stroke:#00b000;stroke-opacity:1">
      <rect
         style="fill:#ffffff;fill-opacity:1;stroke:#00b000;stroke-width:1;stroke-miterlimit:4;stroke-dasharray:none;stroke-dashoffset:0;stroke-opacity:1"
         id="rect4882-61-8-3-5"
         width="7.0866747"
         height="8.8582878"
         x="391.5354"
         y="325.09836" />
      <g
         transform="translate(-941.38206,-72.103317)"
         id="g4899-1-5"
         style="stroke:#00b000;stroke-opacity:1;fill:#00b000;fill-opacity:1">
        <path
           style="font-style:normal;font-variant:normal;font-weight:normal;font-stretch:normal;letter-spacing:normal;word-spacing:normal;text-anchor:start;fill:#00b000;fill-opacity:1;fill-rule:evenodd;stroke:#00b000;stroke-width:0;stroke-linecap:butt;stroke-linejoin:miter;stroke-miterlimit:10.43299961;stroke-dasharray:none;stroke-dashoffset:0;stroke-opacity:1"
           inkscape:connector-curvature="0"
           d="m 1336.8608,398.58581 0,-0.01 0,-0.01 0,-0.02 0,-0.01 0,0 0,-0.01 0,-0.01 0,-0.01 0,-0.01 0,-0.01 0,-0.01 0,-0.01 0,0 0,-0.01 0,-0.01 0,0 0,-0.01 -0.01,-0.01 0,-0.01 0,-0.01 0,-0.01 -0.01,-0.01 0,-0.01 0,0 -0.01,-0.01 0,-0.01 -0.01,0 -0.01,-0.01 -0.01,0 0,-0.01 -0.01,0 0,0 -0.01,0 -0.01,0 0,0 -0.01,0 0,-0.01 -0.01,0 -0.01,0 0,0 -0.01,0 -0.01,0 -0.01,0 0,0 -0.01,0 -0.01,0 -0.01,0 -0.01,0 -0.01,0 -0.01,0 -0.01,0 -0.01,0 c -0.62,0.64 -1.49,0.64 -1.81,0.64 l 0,0.3 c 0.2,0 0.79,0 1.3,-0.25 l 0,5.14 c 0,0.36 -0.03,0.48 -0.92,0.48 l -0.32,0 0,0.3 c 0.35,-0.03 1.21,-0.03 1.61,-0.03 0.4,0 1.27,0 1.61,0.03 l 0,-0.3 -0.31,0 c -0.9,0 -0.93,-0.11 -0.93,-0.48 z"
           id="path4617-0-3" />
      </g>
    </g>
    <g
       transform="translate(5.3149362,-85.925192)"
       id="g4817">
      <rect
         style="fill:#ffffff;fill-opacity:1;stroke:#00b000;stroke-width:1;stroke-miterlimit:4;stroke-dasharray:none;stroke-dashoffset:0;stroke-opacity:1"
         id="rect4882-61-8-3-5-7"
         width="7.0866756"
         height="8.8582888"
         x="407.48029"
         y="326.87" />
      <path
         id="path4619-2-8"
         d="m 409.80862,333.84415 1.05,-1.02 c 1.56,-1.37 2.15,-1.91 2.15,-2.9 0,-1.14 -0.89,-1.93 -2.11,-1.93 -1.12,0 -1.86,0.91 -1.86,1.8 0,0.55 0.5,0.55 0.53,0.55 0.17,0 0.52,-0.12 0.52,-0.52 0,-0.26 -0.18,-0.52 -0.53,-0.52 -0.08,0 -0.1,0 -0.13,0.01 0.23,-0.65 0.77,-1.01 1.35,-1.01 0.9,0 1.33,0.8 1.33,1.62 0,0.79 -0.5,1.58 -1.05,2.19 l -1.91,2.13 c -0.11,0.11 -0.11,0.13 -0.11,0.36 l 3.69,0 0.28,-1.72 -0.25,0 c -0.04,0.3 -0.12,0.73 -0.21,0.88 -0.07,0.08 -0.73,0.08 -0.95,0.08 z"
         inkscape:connector-curvature="0"
         style="font-style:normal;font-variant:normal;font-weight:normal;font-stretch:normal;letter-spacing:normal;word-spacing:normal;text-anchor:start;fill:#00b000;fill-opacity:1;fill-rule:evenodd;stroke:#000000;stroke-width:0;stroke-linecap:butt;stroke-linejoin:miter;stroke-miterlimit:10.43299961;stroke-dasharray:none;stroke-dashoffset:0;stroke-opacity:1" />
    </g>
    <path
       sodipodi:nodetypes="csc"
       inkscape:connector-curvature="0"
       id="path4442"
       d="m 527.95273,212.59833 c 3.54331,-3.54331 5.31496,0 7.08662,0 l 5.31499,1e-5"
       style="fill:none;fill-rule:evenodd;stroke:#000000;stroke-width:1.00000012;stroke-linecap:butt;stroke-linejoin:miter;stroke-miterlimit:4;stroke-dasharray:none;stroke-opacity:1;marker-end:url(#Arrow2Mend)" />
    <g
       ns0:preamble="C:\\Program Files\\Inkscape\\share\\extensions\\default_packages.tex"
       ns0:text="$B_t$"
       word-spacing="normal"
       letter-spacing="normal"
       font-size-adjust="none"
       font-stretch="normal"
       font-weight="normal"
       font-variant="normal"
       font-style="normal"
       stroke-miterlimit="10.433"
       xml:space="preserve"
       transform="matrix(1,0,0,-1,382.66104,914.41008)"
       id="content"
       style="font-style:normal;font-variant:normal;font-weight:normal;font-stretch:normal;letter-spacing:normal;word-spacing:normal;text-anchor:start;fill:#000000;fill-opacity:1;fill-rule:evenodd;stroke:#000000;stroke-linecap:butt;stroke-linejoin:miter;stroke-miterlimit:10.43299961;stroke-dasharray:none;stroke-dashoffset:0;stroke-opacity:1"><path
         id="path5132"
         d="m 150.3,707.9 -0.01,-0.04 0,-0.03 -0.01,-0.03 -0.01,-0.03 -0.01,-0.03 -0.01,-0.03 -0.01,-0.02 -0.01,-0.03 -0.01,-0.02 -0.01,-0.02 -0.02,-0.02 -0.01,-0.02 -0.01,-0.02 -0.02,-0.01 -0.02,-0.02 -0.02,-0.01 -0.02,-0.01 -0.03,-0.01 -0.03,-0.01 -0.03,-0.01 -0.03,-0.01 -0.02,0 -0.01,-0.01 -0.02,0 -0.02,0 -0.02,-0.01 -0.02,0 -0.02,0 -0.03,0 -0.02,-0.01 -0.02,0 -0.03,0 -0.03,0 -0.02,0 -0.03,0 -0.03,0 -0.03,0 -0.03,-0.01 -0.03,0 -0.04,0 -0.03,0 -0.03,0 -0.04,0 c -0.17,0 -0.27,0 -0.27,-0.2 0,-0.1 0.09,-0.1 0.27,-0.1 l 3.55,0 c 1.57,0 2.75,1.17 2.75,2.14 0,0.72 -0.58,1.29 -1.55,1.4 1.04,0.19 2.08,0.92 2.08,1.87 0,0.73 -0.65,1.37 -1.85,1.37 l -0.14,-0.31 c 0.88,0 1.09,-0.58 1.09,-1.02 0,-0.87 -0.86,-1.82 -2.07,-1.82 l -1.45,0 -0.06,-0.22 1.88,0 c 0.95,0 1.14,-0.73 1.14,-1.16 0,-0.98 -0.88,-1.95 -2.06,-1.95 l -1.35,0 c -0.14,0 -0.16,0 -0.22,0.01 -0.1,0.01 -0.13,0.02 -0.13,0.1 0,0.03 0,0.05 0.05,0.23 l 0.69,2.77 0.06,0.22 0.61,2.46 c 0.09,0.35 0.11,0.38 0.54,0.38 l 1.28,0 0.14,0.31 -3.34,0 c -0.19,0 -0.29,0 -0.29,-0.2 0,-0.11 0.09,-0.11 0.28,-0.11 0.02,0 0.21,0 0.38,-0.02 0.18,-0.02 0.27,-0.03 0.27,-0.16 0,-0.04 -0.01,-0.07 -0.04,-0.19 z"
         inkscape:connector-curvature="0"
         style="fill:#000000;stroke-width:0" /><path
         id="path5134"
         d="m 157.98,708.38 0.71,0 c 0.13,0 0.22,0 0.22,0.15 0,0.1 -0.09,0.1 -0.2,0.1 l -0.67,0 0.26,1.03 c 0.01,0.03 0.02,0.07 0.02,0.1 0,0.12 -0.09,0.22 -0.23,0.22 -0.18,0 -0.28,-0.12 -0.33,-0.3 -0.05,-0.18 0.04,0.16 -0.27,-1.05 l -0.71,0 c -0.13,0 -0.22,0 -0.22,-0.16 0,-0.09 0.09,-0.09 0.21,-0.09 l 0.66,0 -0.41,-1.64 c -0.04,-0.18 -0.1,-0.43 -0.1,-0.52 0,-0.41 0.34,-0.66 0.74,-0.66 0.77,0 1.21,0.97 1.21,1.07 0,0.09 -0.09,0.09 -0.11,0.09 -0.08,0 -0.09,-0.02 -0.14,-0.14 -0.2,-0.43 -0.55,-0.82 -0.94,-0.82 -0.14,0 -0.24,0.09 -0.24,0.34 0,0.07 0.03,0.21 0.04,0.28 z"
         inkscape:connector-curvature="0"
         style="fill:#000000;stroke-width:0" /></g>  </g>
</svg>
